datetime,volt,rotate,pressure,vibration,Anomaly_volt,Anomaly_rotate,Anomaly_pressure,Anomaly_vibration
2015-03-04 05:00:00,180.710421989414,420.230865458123,93.8323197154431,41.5728681927664,0,0,0,0
2015-03-04 06:00:00,195.640614201743,466.673994312139,94.5381695673592,37.6553790990573,0,0,1,0
2015-03-04 10:00:00,179.946843300447,395.10593513556,92.8407904793412,39.2991264278214,0,0,1,0
2015-03-04 11:00:00,160.313875443178,373.215520217442,85.155080463012,38.7478069183949,0,1,1,0
2015-03-04 12:00:00,183.577215107206,422.258397540281,120.384189069045,34.0232619718079,0,1,1,0
2015-03-04 13:00:00,166.994638190892,395.686453423131,80.012661564357,37.3108426954085,0,1,0,0
2015-03-04 14:00:00,155.154478307173,434.928344652817,103.434183131113,33.2914755137091,0,0,0,0
2015-03-04 15:00:00,163.879774911624,374.166468598012,97.9091295455915,41.124825422809,0,0,0,0
2015-03-04 16:00:00,153.468158243051,456.31407226017,97.9027731241486,40.3503948965521,0,0,1,0
2015-03-04 17:00:00,184.061227615149,483.717183969467,84.4732614373605,38.2171645755625,0,1,1,0
2015-03-04 18:00:00,149.45322225972,490.409513456944,111.029166101584,46.4763545107994,0,1,1,0
2015-03-04 19:00:00,150.882279902845,424.809292309647,112.885347540109,36.5402361089739,0,1,1,0
2015-03-04 20:00:00,156.287553770612,466.699264079529,91.0564130197397,40.2100742129298,0,1,1,0
2015-03-04 21:00:00,184.427121443551,512.264548553149,100.423697781028,38.5213588532271,0,1,1,0
2015-03-04 22:00:00,195.471749090775,498.719079138401,92.3717278636967,36.7114273968666,0,1,1,0
2015-03-04 23:00:00,162.412805209629,531.467976185345,117.715632677554,43.9869361276095,1,1,1,0
2015-03-05 00:00:00,189.386172613614,480.215832050471,96.8180959235189,40.0778730993202,1,0,1,0
2015-03-05 01:00:00,145.931860668397,446.135887326906,72.8017374051862,41.4270783931127,1,0,0,0
2015-03-05 02:00:00,144.596496792459,461.435061081665,92.8906927002182,40.0160293073746,1,0,1,0
2015-03-05 03:00:00,165.179830144467,415.973179160459,94.5735845482984,41.1733212966079,0,0,1,0
2015-03-05 04:00:00,168.798011021985,518.980652885838,98.3262245848639,32.2506775258901,0,1,1,0
2015-03-05 05:00:00,179.388531532822,577.634846340387,116.699336637166,33.3989887748663,0,0,0,0
2015-03-05 06:00:00,183.909956722636,388.396222112025,97.0860525126979,35.1126327489267,1,0,1,0
2015-03-05 07:00:00,171.086162170599,388.395037416094,102.440326834937,37.9183716261392,1,0,0,0
2015-03-05 08:00:00,187.901850160087,439.941225635826,114.18260208744,45.8923167181039,1,0,1,0
2015-03-05 09:00:00,157.437038312104,484.232726115831,98.6527992692986,40.8751074043774,1,0,1,0
2015-03-05 10:00:00,177.75918657733,453.763627898802,86.0868500662732,41.4485338082201,1,0,1,0
2015-03-05 11:00:00,181.546224204206,519.135887287134,112.035106333746,33.6129061847443,1,0,1,0
2015-03-05 12:00:00,162.139449670949,450.391450292828,95.0695103742416,45.9023030961502,1,0,1,0
2015-03-05 13:00:00,182.484350361937,508.542235774623,111.01120457402,37.9131472350834,1,0,1,0
2015-03-05 14:00:00,169.594208622261,510.659636549849,86.7478818573998,50.4715647570049,1,0,1,0
2015-03-05 15:00:00,144.143832873896,410.01351148106,101.579114362951,45.4924960883416,1,0,1,0
2015-03-05 16:00:00,142.563387681737,432.649760076315,103.13379199374,38.5934611125277,1,0,1,0
2015-03-05 17:00:00,189.39150921476,355.701825109068,113.654117248182,48.8818407097553,1,0,1,0
2015-03-05 18:00:00,186.214190982314,517.403623875946,82.9777807735186,43.6057795228907,1,0,1,0
2015-03-05 19:00:00,179.780240788541,363.925194001183,98.7628044944642,38.8661129984261,1,0,1,0
2015-03-05 20:00:00,191.847633054669,407.946689589909,115.019866312666,51.6535241855181,1,0,1,0
2015-03-05 21:00:00,178.497249546385,565.497452116461,97.0364875728494,29.7845319219324,1,0,1,0
2015-03-05 22:00:00,145.725194517377,461.05186121748,99.9450293288363,22.9055649199947,1,0,1,0
2015-03-05 23:00:00,161.769677614919,538.966730754801,91.6573835833711,41.2570483990272,1,0,1,0
2015-03-06 00:00:00,167.102283817105,506.600696771774,113.640380799088,33.9294702421604,1,0,1,0
2015-03-06 01:00:00,160.526479692244,490.2316853479,103.853066700751,38.1903345141559,1,0,1,0
2015-03-06 02:00:00,167.218897259045,443.15284288414,97.2660991123209,34.604863883898,1,0,1,0
2015-03-06 03:00:00,153.108571143076,451.174323532113,107.801864394854,37.9890234274359,1,0,1,0
2015-03-06 04:00:00,193.304072967322,427.507555412442,95.7894943414236,38.7656586430883,1,0,1,0
2015-03-06 05:00:00,173.695345100332,450.575050498006,105.121128030497,39.562288904666,1,0,1,0
2015-03-06 06:00:00,158.830383876236,398.179135279975,115.808572716663,37.5903771793185,1,0,1,0
2015-03-06 07:00:00,148.161344536947,495.524620133779,99.4006504467464,47.0081699201753,1,0,1,0
2015-03-06 08:00:00,160.752416650181,407.714121108266,100.455406340666,29.7995111734264,1,0,1,0
2015-03-06 09:00:00,145.577259552044,455.958513425915,92.0815089009843,43.0883926424632,1,0,1,0
2015-03-06 10:00:00,167.796727182285,521.287031052487,80.2342725935957,47.4465839085865,1,0,1,0
2015-03-06 11:00:00,173.247403308012,340.750520818152,115.633712703391,39.7328103718233,1,0,1,0
2015-03-06 12:00:00,150.41266649995,483.184732410949,101.814023717473,32.9925829063467,1,0,1,0
2015-03-06 13:00:00,159.406215578258,429.189155833198,100.439905006621,46.5750008878957,1,0,1,0
2015-03-06 14:00:00,171.462457655081,412.816669649674,105.082484044145,42.1153236997018,1,0,1,0
2015-03-06 15:00:00,148.993971296616,488.617825688339,108.231157768454,33.1365080097356,1,0,1,0
2015-03-06 16:00:00,183.141143090239,493.066317396732,86.4139761310654,42.2932017842791,1,0,1,0
2015-03-06 17:00:00,178.673260575875,308.785639120475,106.381865491768,45.572594366155,1,0,1,0
2015-03-06 18:00:00,168.216863270369,485.712993550117,84.0974364895665,41.8088403436879,1,0,1,0
2015-03-06 19:00:00,172.455736165734,434.179003811519,89.5195782071018,41.9577421061015,1,0,1,0
2015-03-06 20:00:00,159.152883069684,386.399236932713,90.8342498216202,40.9071471621403,1,0,1,0
2015-03-06 21:00:00,159.842108115666,419.634096466132,101.972958737458,37.5676266919947,1,0,1,0
2015-03-06 22:00:00,153.431679153069,372.853466791927,100.067059035054,36.6378191303217,1,0,1,0
2015-03-06 23:00:00,165.315449034395,421.874733308974,84.1238053919755,35.3347804836621,1,0,1,0
2015-03-07 00:00:00,145.059424512355,449.545251752801,93.4589847037469,38.8382097566155,1,0,1,0
2015-03-07 01:00:00,153.807495703406,475.224776945958,93.0136017193688,47.6913827910463,1,0,1,0
2015-03-07 02:00:00,189.276466331628,537.19168263052,110.297254063797,38.0923387292506,1,0,1,0
2015-03-07 03:00:00,156.315802874222,465.774613703541,84.3979512976605,41.680294529516,1,0,1,0
2015-03-07 04:00:00,151.596270655773,490.016824201088,111.79942094843,42.8927430030137,1,0,1,0
2015-03-07 05:00:00,185.60293864059,460.219132983808,114.864009605594,37.0614719176006,1,0,1,0
2015-03-07 06:00:00,164.834554850446,462.175505687769,94.8005254444597,47.3254172447841,1,0,1,0
2015-03-07 07:00:00,174.463080872882,384.249937153923,101.107333165043,51.5455746375024,1,0,1,0
2015-03-07 08:00:00,176.187556713437,465.304414329781,87.7236532541465,32.8510865539898,1,0,1,0
2015-03-07 09:00:00,178.416499925572,434.196966355173,98.107206518261,35.6702603504463,1,0,1,0
2015-03-07 10:00:00,164.633597920466,479.974610036724,84.0239396266779,40.5450031010601,0,0,1,0
2015-03-07 11:00:00,165.317810609757,429.085818056092,102.72414507737,32.2015893255869,0,0,1,0
2015-03-07 12:00:00,160.190786094988,454.97669544761,93.5225558204188,44.3297189296766,0,0,1,0
2015-03-07 13:00:00,185.899036698062,436.492794397888,89.5956682105066,45.0369145343734,0,0,1,0
2015-03-07 14:00:00,180.855813539687,420.855214940039,99.9851115528165,43.033401919177,1,0,1,0
2015-03-07 15:00:00,177.391233864134,507.1364047439,105.169120462642,36.7789604473841,1,0,1,0
2015-03-07 16:00:00,157.231211026752,438.967933497237,114.698680644771,36.0146897908465,1,0,1,0
2015-03-07 18:00:00,177.588052047567,502.269302848505,108.815171653879,44.4062767326058,1,0,1,0
2015-03-07 19:00:00,178.051571523761,528.178323171196,107.43724519683,53.790813208993,0,0,1,0
2015-03-07 20:00:00,181.290926995115,408.070739174341,90.1380507563206,40.223361144649,0,0,1,0
2015-03-07 21:00:00,166.363807571535,493.745568967924,101.505428445465,33.2447098290679,0,0,1,0
2015-03-07 22:00:00,143.980743349521,376.448024502819,93.6082165460519,40.522347397584,1,0,1,0
2015-03-07 23:00:00,164.337087874297,461.34039510245,99.8338151035086,38.2030945051335,0,0,1,0
2015-03-08 00:00:00,155.014007876858,431.10051871299,90.5138269534126,37.6534692935744,1,0,1,0
2015-03-08 01:00:00,170.060177680539,372.114086353074,110.197454371038,43.1854506447014,0,0,1,0
2015-03-08 02:00:00,185.449984321428,499.716225239341,108.689387183963,33.5579366054103,0,0,1,0
2015-03-08 03:00:00,200.303228890347,467.849556773986,95.0956700301778,45.0555253437568,1,0,1,0
2015-03-08 04:00:00,169.934145942939,427.970015031671,103.009363422015,40.9813919245342,1,0,1,0
2015-03-08 05:00:00,146.487961572274,490.416896629875,105.377808222972,40.439703022816,1,0,1,0
2015-03-08 06:00:00,177.633043262154,433.508974295942,99.8749379373471,38.0043410698724,0,0,1,0
2015-03-08 07:00:00,150.882818600449,525.903612914832,96.094882215742,34.6444794622597,0,0,1,0
2015-03-08 08:00:00,191.232880280975,485.235975941043,92.3632353354266,34.4827472514816,0,0,1,0
2015-03-08 09:00:00,174.226928736992,459.136183273154,109.911367499069,41.300001172614,0,0,1,0
2015-03-08 10:00:00,185.055921832194,480.122831426276,86.4630235146144,46.2793701203431,0,0,1,0
2015-03-08 11:00:00,164.298689341505,465.429277209234,105.436413808239,44.1949064408971,0,0,1,0
2015-03-08 12:00:00,183.308442969875,428.400560696612,100.035307834317,35.7473315506991,0,0,1,0
2015-03-08 13:00:00,186.071693584631,489.660570493293,99.9338950559539,43.0394358675494,0,0,1,0
2015-03-08 14:00:00,168.093999723362,556.883688589005,107.638589245282,31.859361874004,0,0,1,0
2015-03-08 15:00:00,181.406603131487,500.022876614932,101.404049665632,37.9987960480103,0,0,1,0
2015-03-08 16:00:00,175.68931006941,456.520839396606,105.761686125972,39.3528381313764,0,0,1,0
2015-03-08 17:00:00,140.730141479182,531.495607341636,92.7755558522932,43.7656891535101,0,0,1,0
2015-03-08 18:00:00,185.125261747091,487.994408664912,94.1866200530993,47.2722218131706,0,0,1,0
2015-03-08 19:00:00,179.668420094606,457.913345522099,98.3674375088031,44.7963309125653,0,0,1,0
2015-03-08 20:00:00,150.813625342889,524.740657600802,105.486209894605,33.2772086802939,0,0,1,0
2015-03-08 21:00:00,186.376312935831,517.953233056954,98.1994238988438,52.4982657519548,0,0,1,0
2015-03-08 22:00:00,170.655338470345,435.906421127759,90.3664185808849,34.109201925526,0,0,1,0
2015-03-08 23:00:00,176.531150747216,538.454162512701,106.629404972809,50.244712142218,0,0,1,0
2015-03-09 00:00:00,172.485996021865,481.102667880397,93.0039626126522,40.496682441506,0,0,1,0
2015-03-09 01:00:00,162.264795415181,478.770799266113,135.16135200729,41.9089172558433,0,0,1,0
2015-03-09 02:00:00,155.228091405797,495.17328666837,95.7055499743938,53.8097601507734,0,0,1,0
2015-03-09 04:00:00,177.95224621086,470.078579256278,112.024919080748,46.7084401854551,0,0,1,0
2015-03-09 05:00:00,161.708168384731,436.166776382323,107.792485313934,48.9880817636982,0,0,1,0
2015-03-09 06:00:00,136.31640574975,467.351679433183,75.7667328365852,31.8007457105707,0,0,1,0
2015-03-09 07:00:00,140.763711101235,472.181381576535,77.9589257476688,50.0321318073867,0,0,1,0
2015-03-09 08:00:00,171.633829422022,499.223454188614,111.733638853851,45.58213918061,0,0,1,0
2015-03-09 09:00:00,181.528576747282,396.592254474424,83.0970444144317,44.9077772614081,0,0,1,0
2015-03-09 10:00:00,170.130036573367,444.109388111179,87.3745074973595,45.6757079991352,0,0,1,0
2015-03-09 11:00:00,184.990173470062,400.791806416859,80.979894186559,32.9017262735619,0,0,1,0
2015-03-09 12:00:00,140.801581361162,419.886301699401,109.331635925001,46.6738361343326,0,0,1,0
2015-03-09 13:00:00,174.556303146756,461.84946897027,112.06396364927,34.4151687173595,0,0,1,0
2015-03-09 15:00:00,174.851820189679,416.0756403825,99.2067205830974,52.4989185214732,0,0,1,0
2015-03-09 16:00:00,167.645556505465,491.225864996406,97.0727009389523,42.3039795233375,0,0,1,0
2015-03-09 17:00:00,200.447289694488,442.700688410788,100.713384960763,41.701238030374,0,0,1,0
2015-03-09 18:00:00,158.18684690459,460.095069634051,102.260431917939,34.2261403099557,0,0,1,0
2015-03-09 19:00:00,156.597725557466,506.737619286203,101.514954382681,35.4364779121111,0,0,1,0
2015-03-09 20:00:00,181.624076571586,361.822206763052,79.7846658326914,44.9712138714494,0,0,1,0
2015-03-09 21:00:00,174.140900175991,468.844924043723,91.2346806469849,31.8521956855841,0,0,1,0
2015-03-09 22:00:00,167.026946079872,506.951059619795,101.902452879774,29.7049505107696,0,0,1,0
2015-03-09 23:00:00,174.081502683012,475.489400884712,97.1355052965417,43.1935155560225,0,0,1,0
2015-03-10 00:00:00,183.821046970841,388.942433798477,92.6497922330908,46.149037103622,1,0,1,0
