datetime,volt,rotate,pressure,vibration,Anomaly_volt,Anomaly_rotate,Anomaly_pressure,Anomaly_vibration
8/1/2015 8:00,181.9890772,379.0752119,99.31529463,44.3849083,,,,
8/1/2015 9:00,184.7121575,471.801282,91.93978704,36.50263903,,,,
8/1/2015 10:00,155.7948475,488.5808939,91.68275084,44.03329932,,,,
8/1/2015 11:00,161.2688197,503.0572467,97.92262552,46.21403133,,,,
8/1/2015 12:00,193.5789478,437.7583346,89.74872562,37.02535186,,,,
8/1/2015 13:00,152.3327048,443.8124658,79.82338291,39.74768528,,,,
8/1/2015 14:00,173.4949662,374.6870032,98.82549885,39.88147352,,,,
8/1/2015 15:00,186.3730341,468.799799,118.5447122,36.56926066,,,,
8/1/2015 16:00,158.7909041,405.6803338,104.1029621,42.14973435,,,,
8/1/2015 17:00,169.7953747,476.2722581,94.42459569,42.11328777,,,,
8/1/2015 18:00,156.8374539,421.4466174,95.62974802,46.6539979,,,,
8/1/2015 19:00,176.2386419,433.1103705,85.27946983,44.07317621,,,,
8/1/2015 20:00,158.8062062,388.0038918,118.4217432,45.47822034,,,,
8/1/2015 21:00,162.8751847,473.4505972,102.9798271,41.9783188,,,,
8/1/2015 22:00,152.365471,374.6361524,99.35942118,31.93525768,,,,
8/1/2015 23:00,179.039715,408.4799865,107.5954466,41.78381402,,,,
8/2/2015 0:00,158.9419283,439.4903244,113.6198226,39.54928521,,,,
8/2/2015 1:00,185.1498467,368.2061757,97.09361181,40.62032969,,,,
8/2/2015 2:00,178.526232,515.9111792,90.17805265,30.75194949,,,,
8/2/2015 3:00,164.307732,501.2315128,100.5296556,31.66763166,,,,
8/2/2015 4:00,184.2530779,449.6966213,113.8854289,39.14244579,,,,
8/2/2015 5:00,160.9871831,504.10472,99.83642285,32.93634272,,,,
8/2/2015 6:00,171.8707297,450.495219,99.25412075,44.26592215,,,,
8/2/2015 7:00,180.1474331,373.2241289,104.3465106,34.2369576,,,,
8/2/2015 8:00,174.3092403,418.6094609,118.5950232,34.93303114,,,,
8/2/2015 9:00,192.1777791,486.2751528,119.219703,38.64163739,,,,
8/2/2015 10:00,158.3101305,484.8878071,99.12842084,41.48744479,,,,
8/2/2015 11:00,160.8256831,495.1357053,99.8822955,34.86422702,,,,
8/2/2015 12:00,160.8395956,434.34926,90.74979667,42.06751916,,,,
8/2/2015 13:00,134.6646734,425.4618413,90.30314902,42.66791523,,,,
8/2/2015 14:00,169.8432543,470.4495672,118.0061184,42.35667322,,,,
8/2/2015 15:00,182.3680904,502.6238328,100.3966026,47.20337198,,,,
8/2/2015 16:00,189.265375,435.8638833,100.7424947,39.19593243,,,,
8/2/2015 17:00,172.186036,502.4227383,99.57762562,49.24303517,,,,
8/2/2015 18:00,188.7587688,419.7549007,106.7402432,35.02237619,,,,
8/2/2015 19:00,160.4996823,402.6915835,91.13067094,38.43860026,,,,
8/2/2015 20:00,162.048979,499.9678239,90.40557657,39.80187386,,,,
8/2/2015 21:00,175.9487234,459.2085163,106.0418501,41.76615536,,,,
8/2/2015 22:00,170.7637584,384.5836842,86.15767733,43.7710886,,,,
8/2/2015 23:00,165.3239153,430.8934694,92.88922685,48.17021033,,,,
8/3/2015 0:00,167.8231925,470.2313268,103.2535516,43.76000772,,,,
8/3/2015 1:00,145.9504833,435.2671004,101.6201962,38.23740025,,,,
8/3/2015 2:00,147.5217308,473.4871187,116.3050284,40.12199532,,,,
8/3/2015 3:00,193.9116332,471.2732518,104.7192065,38.00142888,,,,
8/3/2015 4:00,186.3027598,448.9064478,99.2193908,28.52365794,,,,
8/3/2015 5:00,157.3796563,494.9102423,89.76465386,41.3852892,,,,
8/3/2015 6:00,158.985084,361.2585392,97.29644597,39.43389921,,,,
8/3/2015 7:00,205.6859823,375.1177897,80.58991181,41.10467701,,,,
8/3/2015 8:00,177.4844242,406.6025503,107.3968843,40.19729919,,,,
8/3/2015 9:00,171.1405469,428.5827919,106.5054785,35.53384252,,,,
8/3/2015 10:00,180.8702406,470.9675769,112.1740578,35.08658843,,,,
8/3/2015 11:00,165.0407126,487.0969029,86.68089892,42.1432352,,,,
8/3/2015 12:00,155.9080808,433.6959979,103.8850054,35.20322214,,,,
8/3/2015 13:00,186.7781478,411.8041717,100.1290134,47.83497449,,,,
8/3/2015 14:00,164.8862343,428.6201991,109.2001567,43.1559576,,,,
8/3/2015 15:00,175.6102009,448.8300264,101.6928502,42.67795794,,,,
8/3/2015 16:00,176.7422785,439.4292496,97.36544843,53.10267624,,,,
8/3/2015 17:00,186.7216272,471.5794434,105.5760687,36.45361047,,,,
8/3/2015 18:00,153.058731,543.2237773,96.58231256,40.07887094,,,,
8/3/2015 19:00,175.8566989,537.8582959,87.24471398,38.20361544,0,0,0,0
8/3/2015 20:00,147.0988453,394.1500095,89.36684217,41.59635389,0,0,0,0
8/3/2015 21:00,158.328531,472.0531885,99.74700064,34.82718007,0,0,0,0
8/3/2015 22:00,160.261666,429.5527008,96.95309507,36.56708518,0,0,0,0
8/3/2015 23:00,152.4439527,425.2747192,99.92585874,35.44054221,0,0,0,0
8/4/2015 0:00,178.4506899,482.7050868,100.4849827,37.62178058,0,0,0,0
8/4/2015 1:00,149.785451,473.8345146,111.942594,36.08023802,0,0,0,0
8/4/2015 2:00,173.4634791,429.7419629,97.91206259,39.89912748,0,0,0,0
8/4/2015 3:00,172.2187126,537.1695185,88.80489569,40.23995383,0,0,0,0
8/4/2015 4:00,170.7582761,409.2958368,100.7241577,39.39618634,0,0,0,0
8/4/2015 5:00,178.1364613,439.7573682,77.31654227,44.2610817,0,0,0,0
8/4/2015 6:00,170.0274308,449.7131673,89.73966943,40.36177992,0,0,0,0
8/4/2015 7:00,173.5107987,414.1418949,118.0897829,49.79822933,0,0,0,0
8/4/2015 8:00,156.6612182,509.1305254,108.3820273,26.01576376,0,0,0,0
8/4/2015 9:00,175.2259605,387.5008568,94.13348143,38.48049405,0,0,0,0
8/4/2015 10:00,149.0295223,341.5214784,90.79902121,37.31227449,0,0,0,0
8/4/2015 11:00,180.7952845,483.9782882,104.24844,48.78260961,0,0,0,0
8/4/2015 12:00,193.6291402,460.68969,105.5921184,39.36769461,0,0,0,0
8/4/2015 13:00,180.0916488,448.5927931,94.07364443,40.65157442,0,0,0,0
8/4/2015 14:00,177.5083876,434.3298566,102.4117334,43.55730366,0,0,0,0
8/4/2015 15:00,203.7575814,430.4047216,104.0474085,44.32057501,0,0,0,0
8/4/2015 16:00,171.2782327,427.8286915,87.98951345,34.13263444,0,0,0,0
8/4/2015 17:00,146.0939688,494.8187028,86.20690679,37.41331089,0,0,0,0
8/4/2015 18:00,152.4517508,442.0342142,89.300385,41.35443276,0,0,0,0
8/4/2015 19:00,173.0535355,546.2252055,102.9456196,42.08824994,0,0,0,0
8/4/2015 20:00,168.5110728,451.5464198,102.3583916,34.07046284,0,0,0,0
8/4/2015 21:00,155.1905157,364.9608715,109.3593045,44.46498241,0,0,0,0
8/4/2015 22:00,160.6491078,417.5793307,105.5407794,38.61217562,0,0,0,0
8/4/2015 23:00,162.6741999,417.6463978,105.0853322,44.33636135,0,0,0,0
8/5/2015 0:00,162.2642727,406.9473429,92.08234872,42.61838987,0,0,0,0
8/5/2015 1:00,144.2455163,406.8328944,81.65506122,45.40463254,0,0,0,0
8/5/2015 2:00,171.6290583,530.7045103,89.1338071,39.19934628,0,0,0,0
8/5/2015 3:00,174.091839,415.9801573,85.30567384,46.08820832,0,0,0,0
8/5/2015 4:00,186.9383409,471.7964351,94.60703508,39.37104245,0,0,0,0
8/5/2015 5:00,183.9937255,406.9126841,87.40258812,52.37666882,0,0,0,0
8/5/2015 6:00,176.0665167,504.76104,104.1819208,41.51175118,0,0,0,0
8/5/2015 7:00,159.8914262,419.5880609,106.3705773,36.77140697,0,0,0,0
8/5/2015 8:00,175.3418384,444.6890315,94.48449767,42.01836482,0,0,0,0
8/5/2015 9:00,148.1518755,421.4170369,112.5857599,41.31259928,0,0,0,0
8/5/2015 10:00,198.0164417,413.6301878,94.99005577,34.80244791,0,0,0,0
8/5/2015 11:00,187.5383344,454.187496,91.8888233,34.3031628,0,0,0,0
8/5/2015 12:00,153.5855366,406.5003581,97.69837693,35.77423702,0,0,0,0
8/5/2015 13:00,173.8397977,397.9267649,112.446937,44.2291158,0,0,0,0
8/5/2015 14:00,165.1326072,370.8695985,91.98257479,43.63462186,0,0,0,0
8/5/2015 15:00,209.7764496,416.1556955,117.3569978,38.7618675,0,0,0,0
8/5/2015 16:00,160.9343158,525.1982889,84.60204562,41.77539135,0,0,0,0
8/5/2015 17:00,153.1474908,370.6838584,102.1503692,43.88577531,0,0,0,0
8/5/2015 18:00,159.3109179,544.8969722,95.38593966,38.47449948,0,0,0,0
8/5/2015 19:00,171.0726398,514.2664043,117.4578595,54.61559593,0,0,0,0
8/5/2015 20:00,161.3828141,472.5513038,94.1721828,38.17578023,0,0,0,0
8/5/2015 21:00,148.9438755,473.8910796,105.4895543,44.74380627,0,0,0,0
8/5/2015 22:00,168.8758572,460.1937624,86.96395655,41.98365919,0,0,0,0
8/5/2015 23:00,178.5775738,383.862019,103.0312986,37.79597263,0,0,0,0
8/6/2015 0:00,184.7870655,395.37986,88.44007368,43.29862512,0,0,0,0
8/6/2015 1:00,143.0648652,502.1552334,103.5224157,40.00415264,0,0,0,0
8/6/2015 2:00,181.0668074,482.4035503,99.167591,43.49646666,0,0,0,0
8/6/2015 3:00,168.9809021,495.2410375,86.27166721,42.77451868,0,0,0,0
8/6/2015 4:00,154.8766143,450.0518361,88.24434452,45.194632,0,0,0,0
8/6/2015 5:00,167.3969438,470.7816284,100.679559,34.93613424,0,0,0,0
8/6/2015 6:00,165.4430073,403.4536194,108.225872,42.07577533,0,0,0,0
8/6/2015 7:00,178.2796097,489.5091186,90.98285727,46.56627726,0,0,0,0
8/6/2015 8:00,183.3538816,408.942257,81.21464466,45.70780577,0,0,0,0
8/6/2015 9:00,181.309365,455.5635838,82.27033981,45.46498327,0,0,0,0
8/6/2015 10:00,165.3488371,412.0416389,95.92575792,38.09060918,0,0,0,0
8/6/2015 11:00,161.1194915,434.6443081,88.33506534,44.94913209,0,0,0,0
8/6/2015 12:00,157.408554,416.3738585,84.39962849,33.5420283,0,0,0,0
8/6/2015 13:00,159.2417594,424.5925018,97.8856804,36.94433508,0,0,0,0
8/6/2015 14:00,167.0581675,376.6703672,94.24178281,38.1545018,0,0,0,0
8/6/2015 15:00,170.3656453,433.1284598,103.2047699,48.26772847,0,0,0,0
8/6/2015 16:00,168.2229543,489.9445102,109.7999135,41.53195184,0,0,0,0
8/6/2015 17:00,172.0019214,420.866075,99.26876156,37.27920588,0,0,0,0
8/6/2015 18:00,168.5144325,485.4761132,104.9084721,42.52472518,0,0,0,0
8/6/2015 19:00,172.7970348,440.0310991,94.45515046,37.66180086,0,0,0,0
8/6/2015 20:00,175.2046221,492.752657,87.04891452,37.08316034,0,0,0,0
8/6/2015 21:00,156.2988411,444.0725873,97.53623479,47.59784562,0,0,0,0
8/6/2015 22:00,184.2245666,541.0513297,116.2521042,40.7467282,0,0,0,0
8/6/2015 23:00,163.5228849,529.6988648,96.59626096,52.42479692,0,0,0,0
8/7/2015 0:00,178.3274636,440.2045459,124.2937524,35.57068034,0,0,0,0
8/7/2015 1:00,168.9708677,505.2625551,96.67553592,40.21515998,0,0,0,0
8/7/2015 2:00,177.7857638,480.5780069,104.3675856,36.39412221,0,0,0,0
8/7/2015 3:00,145.3406672,425.9363808,101.6639492,40.58633396,0,0,0,0
8/7/2015 4:00,157.3225226,487.0004258,116.7183486,43.08987225,0,0,0,0
8/7/2015 5:00,149.0419891,490.5937589,99.97547937,42.26766964,0,0,0,0
8/7/2015 6:00,175.342644,354.8549037,82.07575949,44.30923949,0,0,0,0
8/7/2015 7:00,182.9182104,493.5864975,103.8676992,47.07600799,0,0,0,0
8/7/2015 8:00,159.3354909,377.1530404,101.379686,38.57240183,0,0,0,0
8/7/2015 9:00,175.720029,490.55545,125.6166082,42.2214942,0,0,0,0
8/7/2015 10:00,156.0567166,445.7551027,93.54024931,42.74653957,0,0,0,0
8/7/2015 11:00,146.1943019,457.1499068,98.35336788,37.89608958,0,0,0,0
8/7/2015 12:00,160.6228275,411.3836841,100.5372827,37.19428048,0,0,0,0
8/7/2015 13:00,169.0507514,426.7175219,104.034958,49.372529,0,0,0,0
8/7/2015 14:00,177.3909434,469.7395457,108.0558761,38.93155236,0,0,0,0
8/7/2015 15:00,180.5575422,420.5052884,111.1929487,43.08019937,0,0,0,0
8/7/2015 16:00,138.7861469,490.0658043,111.2356213,36.13941618,0,0,0,0
8/7/2015 17:00,165.2460312,475.9995703,91.83815738,42.73468587,0,0,0,0
8/7/2015 18:00,156.9176701,485.1802144,98.32445032,31.4733823,0,0,0,0
8/7/2015 19:00,180.147235,414.5658608,96.10814176,32.32690653,0,0,0,0
8/7/2015 20:00,174.9400059,430.136703,102.9409758,45.50011695,0,0,0,0
8/7/2015 21:00,187.6266196,579.8363929,104.5835961,39.21106696,0,0,0,0
8/7/2015 22:00,168.1859747,511.6167265,100.4612856,39.61769534,0,0,0,0
8/7/2015 23:00,181.8150027,418.3394629,112.5911287,44.35662459,0,0,0,0
8/8/2015 0:00,166.4697052,406.4010882,91.04363799,35.49351712,0,0,0,0
8/8/2015 1:00,189.4986283,428.8749172,81.66494096,47.1232915,0,0,0,0
8/8/2015 2:00,185.027054,449.593637,87.56079143,44.29455955,0,0,0,0
8/8/2015 3:00,167.9847206,431.6991176,105.3753254,45.31658922,0,0,0,0
8/8/2015 4:00,166.1062852,420.4739333,112.1782485,39.16311147,0,0,0,0
8/8/2015 5:00,162.5958598,436.3694255,109.5084552,40.45183576,0,0,0,0
8/8/2015 6:00,185.5760491,364.107855,102.8623463,34.35208707,0,0,0,0
8/8/2015 7:00,173.4720518,471.9622164,108.8245158,41.21689865,0,0,0,0
8/8/2015 8:00,162.511205,503.6269182,107.5985581,36.58372368,0,0,0,0
8/8/2015 9:00,178.3436931,461.6831687,101.4992882,33.46607909,0,0,0,0
8/8/2015 10:00,164.6207207,454.1730284,96.03055485,41.1854908,0,0,0,0
8/8/2015 11:00,186.030642,430.3273647,91.12658802,44.51825079,0,0,0,0
8/8/2015 12:00,130.5002855,509.5342496,112.1038975,24.81917582,0,0,0,0
8/8/2015 13:00,166.8349922,385.1922332,113.1936132,26.73195278,0,0,0,0
8/8/2015 14:00,151.1803218,462.7810524,86.24101894,45.43728898,0,0,0,0
8/8/2015 15:00,164.4765414,502.0319409,88.51890655,49.73799163,0,0,0,0
8/8/2015 16:00,149.0317942,460.3535492,108.7314384,37.59400756,0,0,0,0
8/8/2015 17:00,166.2668174,485.4224316,108.6211113,33.79030313,0,0,0,0
8/8/2015 18:00,182.3861211,451.1233677,99.05695362,44.08213874,0,0,0,0
8/8/2015 19:00,172.6161419,488.332354,108.3243275,42.89167491,0,0,0,0
8/8/2015 20:00,178.7854457,409.5345045,93.34852864,37.08631272,0,0,0,0
8/8/2015 21:00,169.9329124,406.3510786,106.0539178,30.21089016,0,0,0,0
8/8/2015 22:00,161.7628742,481.3339627,88.96782543,42.83374506,0,0,0,0
8/8/2015 23:00,169.3236548,466.6924699,89.39510025,43.05501028,0,0,0,0
8/9/2015 0:00,160.6659154,441.2750708,111.5112531,42.53996718,0,0,0,0
8/9/2015 1:00,184.8588692,488.6182473,96.30695494,45.89498466,0,0,0,0
8/9/2015 2:00,168.5604902,469.4242014,87.34702854,39.78062034,0,0,0,0
8/9/2015 3:00,175.9336683,431.6544633,98.28314482,41.77519468,0,0,0,0
8/9/2015 4:00,182.4988859,530.1162186,90.38491339,32.6527463,0,0,0,0
8/9/2015 5:00,187.5103658,485.4387019,85.69514957,37.0097402,0,0,0,0
8/9/2015 6:00,158.8380339,466.2346645,119.3577767,42.15457072,0,0,0,0
8/9/2015 7:00,147.5823883,441.2467158,109.3147383,41.72715979,0,0,0,0
8/9/2015 8:00,166.1311098,463.4900072,109.155074,39.96824431,0,0,0,0
8/9/2015 9:00,175.1675902,537.1220676,93.70297653,38.74276024,0,0,0,0
8/9/2015 10:00,168.9228127,415.1447505,113.1653498,32.55489336,0,0,0,0
8/9/2015 11:00,180.3239037,477.9352071,85.73839933,44.64074723,0,0,0,0
8/9/2015 12:00,155.8507018,494.8457058,101.6971311,34.01849044,0,0,0,0
8/9/2015 13:00,188.9492363,474.3912019,122.3959519,47.697275,0,0,0,0
8/9/2015 14:00,174.9087595,419.7421403,97.9956044,37.89468263,0,0,0,0
8/9/2015 15:00,146.9972902,426.6983103,101.2304905,41.13536254,0,0,0,0
8/9/2015 16:00,158.8236739,414.6134082,104.9327541,42.13643688,0,0,0,0
8/9/2015 17:00,163.8375827,454.4825458,87.59408045,36.99941359,0,0,0,0
8/9/2015 18:00,160.1533454,401.9650202,81.45945493,35.8460869,0,0,0,0
8/9/2015 19:00,136.999901,375.7771414,97.87552122,40.12512275,0,0,0,0
8/9/2015 20:00,179.7672132,451.180927,82.8598445,51.56382968,0,0,0,0
8/9/2015 21:00,146.6558546,375.5625356,93.95604036,45.78862123,0,0,0,0
8/9/2015 22:00,175.5939075,454.7480977,96.5198522,42.61284205,0,0,0,0
8/9/2015 23:00,175.8652882,429.3461782,105.8420379,41.26486981,0,0,0,0
8/10/2015 0:00,179.3487038,391.3633442,98.67711157,43.59573358,0,0,0,0
8/10/2015 1:00,169.7945912,405.0746653,87.24038879,33.90746649,0,0,0,0
8/10/2015 2:00,144.484785,410.754094,106.7496431,37.06763576,0,0,0,0
8/10/2015 3:00,195.9119956,424.3975095,95.08919014,38.04012961,0,0,0,0
8/10/2015 4:00,164.8621361,479.5988099,114.6836992,42.69449851,0,0,0,0
8/10/2015 5:00,182.345833,444.2189499,97.83443559,45.67980416,0,0,0,0
8/10/2015 6:00,178.1533168,410.3724961,106.8554186,37.42685761,0,0,0,0
8/10/2015 7:00,176.8955012,399.3586021,102.1320899,38.18537691,0,0,0,0
8/10/2015 8:00,168.3978621,495.0775783,97.43683702,47.50738167,0,0,0,0
8/10/2015 9:00,156.0141681,490.1969594,92.03132671,40.21365719,0,0,0,0
8/10/2015 10:00,153.9644442,410.9034526,97.85384128,31.72334672,0,0,0,0
8/10/2015 11:00,174.6309368,432.2900409,99.5256528,31.29689279,0,0,0,0
8/10/2015 12:00,165.8575664,468.7404793,97.84001262,39.90737967,0,0,0,0
8/10/2015 13:00,136.4924871,483.8757983,101.2590756,46.38795194,0,0,0,0
8/10/2015 14:00,162.9885149,532.7778822,106.3291402,43.40038571,0,0,0,0
8/10/2015 15:00,176.2925421,321.7333239,101.4212628,36.03089179,0,0,0,0
8/10/2015 16:00,162.0745539,439.96329,105.9380661,30.49141329,0,0,0,0
8/10/2015 17:00,150.3103606,377.5519204,96.16138595,43.4459706,0,0,0,0
8/10/2015 18:00,167.4019593,391.1455421,99.70637833,40.03031717,0,0,0,0
8/10/2015 19:00,154.8170044,499.5687708,103.2567282,46.40723212,0,0,0,0
8/10/2015 20:00,158.0769053,473.1654654,92.18544837,48.18289828,0,0,0,0
8/10/2015 21:00,144.6373764,542.7333027,77.85332622,44.58854686,0,0,0,0
8/10/2015 22:00,178.8357303,538.2114487,84.55220734,42.19969312,0,0,0,0
8/10/2015 23:00,181.6079462,496.2638947,107.5665536,39.47920476,0,0,0,0
8/11/2015 0:00,152.3280817,506.1200115,103.5097176,34.04125526,0,0,0,0
8/11/2015 1:00,149.8301025,431.1418027,92.14016205,43.97428464,0,0,0,0
8/11/2015 2:00,167.614863,430.6256965,85.16377834,32.79065452,0,0,0,0
8/11/2015 3:00,187.5914195,437.2106028,99.6182186,43.12607437,0,0,0,0
8/11/2015 4:00,163.1772711,437.8237588,94.74031217,45.08391608,0,0,0,0
8/11/2015 5:00,140.9899241,366.3980046,103.3703654,40.48921086,0,0,0,0
8/11/2015 6:00,185.3508695,416.0162335,96.75048678,45.16703106,0,0,0,0
8/11/2015 7:00,172.5709485,434.2478824,94.958903,37.7424841,0,0,0,0
8/11/2015 8:00,163.9485921,407.8833596,111.8402999,46.60855744,0,0,0,0
8/11/2015 9:00,154.4382141,383.5915775,98.76390477,38.51859095,0,0,0,0
8/11/2015 10:00,178.685661,382.6052607,100.1800611,38.67579025,0,0,0,0
8/11/2015 11:00,155.2903698,388.804496,78.64150355,32.4160273,0,0,0,0
8/11/2015 12:00,158.7097766,420.637971,80.9381504,32.69279445,0,0,0,0
8/11/2015 13:00,183.3709896,434.2675048,102.0643295,41.99215676,0,0,0,0
8/11/2015 14:00,182.7200624,477.4994296,103.8785238,43.4620714,0,0,0,0
8/11/2015 15:00,205.7142576,447.3355068,100.3147624,35.55562383,0,0,0,0
8/11/2015 16:00,178.4698246,398.2340813,103.2592233,36.03525756,0,0,0,0
8/11/2015 17:00,188.865995,480.19902,81.38564842,35.55667008,0,0,0,0
8/11/2015 18:00,162.825821,399.3928999,84.91883653,34.95646981,0,0,0,0
8/11/2015 19:00,174.8775258,471.459208,98.79096689,41.10946783,0,0,0,0
8/11/2015 20:00,192.2278473,601.7963063,99.90834767,36.39559147,0,0,0,0
8/11/2015 21:00,150.1674512,365.5208523,95.56079249,30.92558346,0,0,0,0
8/11/2015 22:00,157.2320956,484.8614503,79.13421984,35.48049048,0,0,0,0
8/11/2015 23:00,169.589864,455.0606621,99.12056736,40.89190159,0,0,0,0
8/12/2015 0:00,183.5413639,408.0891444,101.2298621,48.80827282,0,0,0,0
8/12/2015 1:00,165.9783993,509.5100128,102.4462599,43.54065955,0,0,0,0
8/12/2015 2:00,171.0869904,451.7230458,122.200743,32.92665903,0,0,0,0
8/12/2015 3:00,184.6309594,477.3379142,85.83378708,30.50519169,0,0,0,0
8/12/2015 4:00,180.2196324,446.7009847,96.71997748,40.50906289,0,0,0,0
8/12/2015 5:00,151.4319816,518.3693415,101.106913,42.04176907,0,0,0,0
8/12/2015 6:00,157.9965786,512.1290851,116.7787387,49.19053398,0,0,0,0
8/12/2015 7:00,169.9507643,477.1551434,112.0972881,39.87715029,0,0,0,0
8/12/2015 8:00,161.553519,447.5447807,100.0711844,41.96425791,0,0,0,0
8/12/2015 9:00,161.6577152,384.8809402,108.8180242,26.83680941,0,0,0,0
8/12/2015 10:00,155.4981808,490.8410031,101.6578842,33.88547181,0,0,0,0
8/12/2015 11:00,171.250539,462.2935407,83.41194876,38.68007844,0,0,0,0
8/12/2015 12:00,164.9821088,363.064926,86.02445041,42.15314603,0,0,0,0
8/12/2015 13:00,124.6431777,458.5381421,101.756539,40.37496595,0,0,0,0
8/12/2015 14:00,170.9803212,414.9032371,102.898078,41.07945939,0,0,0,0
8/12/2015 15:00,193.3742061,513.1660376,110.8262957,43.44965002,0,0,0,0
8/12/2015 16:00,180.1529124,563.4375497,111.1809401,46.24227641,0,0,0,0
8/12/2015 17:00,145.8064773,520.1076811,110.8975734,41.59745243,0,0,0,0
8/12/2015 18:00,164.5414016,462.1992878,88.83363109,37.33011207,0,0,0,0
8/12/2015 19:00,150.639766,477.1308885,98.70739843,34.21723641,0,0,0,0
8/12/2015 20:00,165.9711735,461.786224,102.1198411,38.7675437,0,0,0,0
8/12/2015 21:00,162.9418941,326.0102602,104.724752,39.2938551,0,0,0,0
8/12/2015 22:00,170.8808018,434.1535819,103.1111418,42.59078338,0,0,0,0
8/12/2015 23:00,166.8435916,489.8518195,70.51755008,32.35772934,0,0,0,0
8/13/2015 0:00,175.9239583,378.5963949,79.06462912,40.1554943,0,0,0,0
8/13/2015 1:00,151.7664618,389.0625352,99.58025013,44.64212987,0,0,0,0
8/13/2015 2:00,164.0963075,448.1099487,104.6608282,36.13226786,0,0,0,0
8/13/2015 3:00,177.8853038,576.6345486,103.5699795,47.94172855,0,0,0,0
8/13/2015 4:00,166.4521325,348.8807997,90.84678328,34.72763095,0,0,0,0
8/13/2015 5:00,178.801936,383.0276582,123.7906993,29.05834702,0,0,0,0
8/13/2015 6:00,165.6846616,385.675264,106.5156378,35.63807385,0,0,0,0
8/13/2015 7:00,190.6183239,444.154573,96.42358806,43.30000967,0,0,0,0
8/13/2015 8:00,178.9197859,417.7232198,109.0901776,33.93577176,0,0,0,0
8/13/2015 9:00,164.9886131,422.5395262,100.5051555,35.3564206,0,0,0,0
8/13/2015 10:00,180.4020657,585.3675136,100.6043532,38.49103477,0,0,0,0
8/13/2015 11:00,160.9390897,446.3126616,101.8399319,37.99800468,0,0,0,0
8/13/2015 12:00,153.1733901,537.2896456,99.84104857,42.08720553,0,0,0,0
8/13/2015 13:00,176.20506,447.4324419,92.80391759,43.11701344,0,0,0,0
8/13/2015 14:00,179.8956023,470.6626303,122.5493338,46.51076766,0,0,0,0
8/13/2015 15:00,165.3278636,485.7242445,87.69681208,35.19995708,0,0,0,0
8/13/2015 16:00,178.0400163,411.6804864,80.46035108,31.19263917,0,0,0,0
8/13/2015 17:00,182.27329,400.6374078,95.62589088,39.99162203,0,0,0,0
8/13/2015 18:00,183.976201,555.6053229,94.42571525,35.76243039,0,0,0,0
8/13/2015 19:00,178.4388385,480.4461676,121.5741883,31.47476576,0,0,0,0
8/13/2015 20:00,175.0315393,450.271579,112.682612,40.83836221,0,0,0,0
8/13/2015 21:00,156.96415,456.5416636,95.06971291,38.12398851,0,0,0,0
8/13/2015 22:00,164.1752171,410.2310017,95.92797872,42.87826752,0,0,0,0
8/13/2015 23:00,175.3640012,518.1193577,75.24966103,56.24166828,0,0,0,0
8/14/2015 0:00,175.8485175,498.1259046,110.2041292,38.76099967,0,0,0,0
8/14/2015 1:00,165.4714035,543.2663561,103.5866978,39.89792126,0,0,0,0
8/14/2015 2:00,135.414025,371.5147499,100.342344,38.21903314,0,0,0,0
8/14/2015 3:00,154.2527432,519.7192659,96.99142284,41.48089925,0,0,0,0
8/14/2015 4:00,166.7747695,350.5860273,103.7296735,46.24206477,0,0,0,0
8/14/2015 5:00,174.4029933,423.3710437,113.2854391,29.21586526,0,0,0,0
8/14/2015 6:00,179.0279934,488.7532877,99.37232377,39.7901796,0,0,0,0
8/14/2015 7:00,163.7227199,442.3396935,93.32218461,41.68960688,0,0,0,0
8/14/2015 8:00,197.4994838,427.8711613,102.5484987,43.98452708,0,0,0,0
8/14/2015 9:00,137.1160232,485.8129625,98.13366313,38.48629545,0,0,0,0
8/14/2015 10:00,183.4023349,479.3035565,103.839122,43.9549597,0,0,0,0
8/14/2015 11:00,181.1679929,434.0974109,99.25433062,33.62463849,0,0,0,0
8/14/2015 12:00,148.8260949,362.7454388,98.46848465,38.25331604,0,0,0,0
8/14/2015 13:00,155.6053991,400.4930122,97.54669383,36.25831591,0,0,0,0
8/14/2015 14:00,195.621118,364.0541133,95.22553303,35.99269247,0,0,0,0
8/14/2015 15:00,182.2796229,552.3980635,92.99609484,47.14413519,0,0,0,0
8/14/2015 16:00,174.6083581,398.1972929,85.3197794,36.89088715,0,0,0,0
8/14/2015 17:00,180.3320338,487.8463348,121.4459515,36.22877592,0,0,0,0
8/14/2015 18:00,178.0429277,382.2979022,106.7203347,34.25858944,0,0,0,0
8/14/2015 19:00,189.1819895,438.6635623,82.86626697,35.67885875,0,0,0,0
8/14/2015 20:00,140.1891675,478.8646653,113.2825859,37.68792551,0,0,0,0
8/14/2015 21:00,179.4523433,488.8543555,105.4191371,36.88475786,0,0,0,0
8/14/2015 22:00,148.3473211,497.6936008,98.74841058,33.53993682,0,0,0,0
8/14/2015 23:00,157.8542936,396.8574272,115.3631393,37.04905531,0,0,0,0
8/15/2015 0:00,187.2276914,460.9157176,92.03913827,41.39992606,0,0,0,0
8/15/2015 1:00,143.5587327,522.416617,97.86247122,42.04861392,0,0,0,0
8/15/2015 2:00,156.4153177,484.8645813,113.2372102,34.05822735,0,0,0,0
8/15/2015 3:00,156.4076344,499.7491476,133.9103384,44.78323248,0,0,0,0
8/15/2015 4:00,178.9222692,354.9266732,108.8759176,31.86501131,0,0,0,0
8/15/2015 5:00,179.53821,500.7675131,79.01704889,43.62224673,0,0,0,0
8/15/2015 6:00,193.5493469,421.3346925,91.19068814,37.9683689,0,0,0,0
8/15/2015 7:00,161.9316696,471.8311104,92.90382523,39.75582617,0,0,0,0
8/15/2015 8:00,159.2038213,467.5707857,91.07760453,38.1485194,0,0,0,0
8/15/2015 9:00,153.9666944,438.3448384,97.46044108,37.70058472,0,0,0,0
8/15/2015 10:00,202.3333402,442.4626598,82.6803574,41.10282284,0,0,0,0
8/15/2015 11:00,169.3515597,555.6022844,81.08335605,39.39820612,0,0,0,0
8/15/2015 12:00,187.4098139,418.8971685,116.2711762,36.02829178,0,0,0,0
8/15/2015 13:00,153.3762435,409.6785145,97.88889694,48.82601935,0,0,0,0
8/15/2015 14:00,171.4052942,447.7294948,90.07972266,44.61582468,0,0,0,0
8/15/2015 15:00,164.1898791,454.0748851,108.2096686,34.99099783,0,0,0,0
8/15/2015 16:00,169.6352565,484.6373937,80.66583692,37.01927018,0,0,0,0
8/15/2015 17:00,167.5158395,451.8694694,108.4242575,30.17353199,0,0,0,0
8/15/2015 18:00,176.0065285,433.389485,96.95383186,41.16603531,0,0,0,0
8/15/2015 19:00,171.0051089,480.1797411,79.24237036,38.76030833,0,0,0,0
8/15/2015 20:00,172.7459239,480.4509872,103.742303,32.60033066,0,0,0,0
8/15/2015 21:00,159.4209223,477.9871032,117.2525633,39.78033296,0,0,0,0
8/15/2015 22:00,180.522586,462.6900801,93.7641017,39.8146384,0,0,0,0
8/15/2015 23:00,172.6839777,444.5063975,99.35203778,42.75704351,0,0,0,0
8/16/2015 0:00,194.1340551,400.0528764,105.5427785,36.87045624,0,0,0,0
8/16/2015 1:00,161.4197293,464.0208192,112.8091842,34.2973011,0,0,0,0
8/16/2015 2:00,174.2484391,476.9074856,91.49065344,49.7776601,0,0,0,0
8/16/2015 3:00,193.587922,433.0635636,100.7236445,44.18336312,0,0,0,0
8/16/2015 4:00,167.5338362,529.1394477,106.2309105,48.1271675,0,0,0,0
8/16/2015 5:00,173.6703699,376.4366468,110.8606646,42.91080876,0,0,0,0
8/16/2015 6:00,167.6382679,414.3382734,114.4545403,34.9347901,0,0,0,0
8/16/2015 7:00,184.7250423,457.9112409,102.8774389,37.82056135,0,0,0,0
8/16/2015 8:00,168.2373989,461.4317116,100.4788834,34.673221,0,0,0,0
8/16/2015 9:00,181.3540964,420.2681977,103.3779167,42.89459152,0,0,0,0
8/16/2015 10:00,170.0418945,511.0120962,91.47171859,36.66218111,0,0,0,0
8/16/2015 11:00,189.7028566,367.5071168,90.44449701,35.33069606,0,0,0,0
8/16/2015 12:00,152.0299187,335.3449117,106.1053158,24.73409719,0,0,0,0
8/16/2015 13:00,178.7352051,481.5520652,103.6161752,44.20207949,0,0,0,0
8/16/2015 14:00,155.3077128,408.59508,99.99494245,39.52611883,0,0,0,0
8/16/2015 15:00,182.3235738,493.6616296,109.750385,39.92135228,0,0,0,0
8/16/2015 16:00,198.0806792,495.1987832,115.1283474,43.65978485,0,0,0,0
8/16/2015 17:00,179.2548476,456.6296097,111.7119622,42.25503606,0,0,0,0
8/16/2015 18:00,194.7627726,452.9244478,91.7923035,39.78902812,0,0,0,0
8/16/2015 19:00,176.2215601,382.3409988,110.954755,44.65772777,0,0,0,0
8/16/2015 20:00,169.5449491,370.0441592,110.8436216,30.98932278,0,0,0,0
8/16/2015 21:00,171.4978444,442.6155492,97.15586983,34.86151618,0,0,0,0
8/16/2015 22:00,161.4093023,403.5053384,100.4232717,44.60717188,0,0,0,0
8/16/2015 23:00,135.1645819,431.2010751,87.55057435,33.19914557,0,0,0,0
8/17/2015 0:00,165.5193549,543.217083,63.73683388,42.04378665,0,0,0,0
8/17/2015 1:00,189.3788959,390.6206276,104.6906914,37.645748,0,0,0,0
8/17/2015 2:00,189.1962982,444.7670053,95.91419747,45.97290981,0,0,0,0
8/17/2015 3:00,204.1021962,396.1354451,99.1076296,42.13584101,0,0,0,0
8/17/2015 4:00,179.0616231,325.0854713,107.2021849,37.26568972,0,0,0,0
8/17/2015 5:00,159.0543505,432.1914866,87.93379568,32.68421859,0,0,0,0
8/17/2015 6:00,176.7430297,479.1929044,91.96591695,43.00643781,0,0,0,0
8/17/2015 7:00,180.8538805,435.8816488,116.2829694,43.62205733,0,0,0,0
8/17/2015 8:00,179.4606388,512.5656059,111.702115,37.44898044,0,0,0,0
8/17/2015 9:00,167.7834332,452.5552797,118.8096195,34.35675449,0,0,0,0
8/17/2015 10:00,167.9887229,364.2006087,102.9857783,49.62636242,0,0,0,0
8/17/2015 11:00,149.4019463,480.1358754,96.82402878,34.52492945,0,0,0,0
8/17/2015 12:00,160.0794681,469.8057127,103.8999257,54.84390035,0,0,0,0
8/17/2015 13:00,179.7222221,478.0366435,92.7431825,42.38589566,0,0,0,0
8/17/2015 14:00,144.5669008,446.0234081,112.1897143,38.43014704,0,0,0,0
8/17/2015 15:00,143.3429993,480.2001443,108.8149435,35.05791018,0,0,0,0
8/17/2015 16:00,165.7832786,550.5265232,99.48319249,48.94358918,0,0,0,0
8/17/2015 17:00,138.0780525,531.850115,96.68725442,33.15921108,0,0,0,0
8/17/2015 18:00,154.1385625,394.855632,101.907201,32.93701256,0,0,0,0
8/17/2015 19:00,171.8436452,476.3737465,104.7643756,36.32473202,0,0,0,0
8/17/2015 20:00,157.1935476,440.9640742,81.24975472,35.30136574,0,0,0,0
8/17/2015 21:00,169.3630701,434.4432979,116.9926424,40.07600913,0,0,0,0
8/17/2015 22:00,181.4926276,344.1941367,101.4192829,47.39609857,0,0,0,0
8/17/2015 23:00,195.9523515,543.5840977,120.3949237,39.85273882,0,0,0,0
8/18/2015 0:00,152.4937656,523.5249325,100.8032956,33.74404027,0,0,0,0
8/18/2015 1:00,156.9536586,520.4943024,94.78290583,45.2587875,0,0,0,0
8/18/2015 2:00,194.4202668,460.4439689,103.6152378,38.17914297,0,0,0,0
8/18/2015 3:00,166.2069424,417.6896483,89.83474783,38.56761535,0,0,0,0
8/18/2015 4:00,170.1421422,423.1578926,85.18507561,44.25748289,0,0,0,0
8/18/2015 5:00,146.3332328,386.6531801,88.76926838,36.02469188,0,0,0,0
8/18/2015 6:00,160.7319352,521.066836,105.5797219,37.18347272,0,0,0,0
8/18/2015 7:00,165.0305737,470.4585429,109.0688894,38.76978636,0,0,0,0
8/18/2015 8:00,194.589897,396.5208702,116.2900161,43.06088495,0,0,0,0
8/18/2015 9:00,153.2716038,399.9018409,110.6585152,38.28113765,0,0,0,0
8/18/2015 10:00,193.9357426,386.5327556,87.0669164,34.25602034,0,0,0,0
8/18/2015 11:00,162.0861576,418.9280607,93.27483818,45.13746222,0,0,0,0
8/18/2015 12:00,148.6837263,392.8361322,121.5110279,33.55655061,0,0,0,0
8/18/2015 13:00,200.0523215,497.1380962,102.0272516,41.62154079,0,0,0,0
8/18/2015 14:00,153.4650402,420.6458656,93.72943665,41.02059909,0,0,0,0
8/18/2015 15:00,136.164088,513.0960252,76.32835466,39.6904507,0,0,0,0
8/18/2015 16:00,165.2124819,422.7814553,112.4061153,29.6702142,0,0,0,0
8/18/2015 17:00,152.8467331,415.2724084,115.8318495,31.86672635,0,0,0,0
8/18/2015 18:00,179.8828824,404.4178533,92.27874211,43.57930003,0,0,0,0
8/18/2015 19:00,174.0369769,485.7194519,102.419847,46.22478293,0,0,0,0
8/18/2015 20:00,170.3968417,538.7903612,121.0962609,39.20476879,0,0,0,0
8/18/2015 21:00,178.2004095,438.3968936,113.5416549,47.44824016,0,0,0,0
8/18/2015 22:00,156.9304805,448.7112213,87.54959269,45.18373435,0,0,0,0
8/18/2015 23:00,159.0663729,476.7812207,86.64915294,48.0140254,0,0,0,0
8/19/2015 0:00,147.723348,550.7585942,115.9107295,36.53107519,0,0,0,0
8/19/2015 1:00,179.6794945,471.8226487,97.15437049,41.35074017,0,0,0,0
8/19/2015 2:00,170.8014585,469.8272272,93.96340727,47.47968929,0,0,0,0
8/19/2015 3:00,162.6877283,452.2244951,107.9492843,37.53551845,0,0,0,0
8/19/2015 4:00,153.5775963,382.082177,108.2050615,41.19892518,0,0,0,0
8/19/2015 5:00,184.688171,477.1067588,89.96757768,34.0822992,0,0,0,0
8/19/2015 6:00,181.0578136,419.9280109,91.76020127,47.27625341,0,0,0,0
8/19/2015 7:00,193.6255724,462.3795407,123.8160671,32.07826926,0,0,0,0
8/19/2015 8:00,175.7389625,439.0588111,98.36290999,43.33171581,0,0,0,0
8/19/2015 9:00,158.5481274,446.0858617,100.8717119,41.19036961,0,0,0,0
8/19/2015 10:00,199.201765,379.6117999,102.6663337,43.06280453,0,0,0,0
8/19/2015 11:00,167.691943,438.5453024,106.2426503,49.0292736,0,0,0,0
8/19/2015 12:00,198.4985192,466.5914108,87.44066591,40.83100387,0,0,0,0
8/19/2015 13:00,170.7391395,430.8361725,109.3577804,46.57903654,0,0,0,0
8/19/2015 14:00,161.8198605,361.0443518,113.1363515,37.55507533,0,0,0,0
8/19/2015 15:00,151.7051415,435.3635638,98.66762923,36.90517761,0,0,0,0
8/19/2015 16:00,170.3942644,473.5399294,88.83429993,46.01050686,0,0,0,0
8/19/2015 17:00,164.1329356,520.4853129,94.91354007,46.18429233,0,0,0,0
8/19/2015 18:00,155.7730518,513.0403637,100.8922954,41.78877282,0,0,0,0
8/19/2015 19:00,187.3051914,476.7602673,100.5780013,47.83359542,0,0,0,0
8/19/2015 20:00,167.1246167,415.1743067,91.56419015,49.38735349,0,0,0,0
8/19/2015 21:00,170.0845405,443.5146927,72.80536828,41.7686716,0,0,0,0
8/19/2015 22:00,150.1285502,420.8746747,93.39521072,40.75358353,0,0,0,0
8/19/2015 23:00,180.3319774,490.4372867,107.5894891,42.88845729,0,0,0,0
8/20/2015 0:00,180.5001259,486.1983201,95.57533622,40.94243613,0,0,0,0
8/20/2015 1:00,176.142303,439.4274536,113.3025781,40.23712692,0,0,0,0
8/20/2015 2:00,183.4131516,422.3842944,95.59445732,42.46542484,0,0,0,0
8/20/2015 3:00,165.2021678,450.2450064,98.79184862,37.0898084,0,0,0,0
8/20/2015 4:00,165.2615456,456.046248,95.37026466,38.0076244,0,0,0,0
8/20/2015 5:00,161.8159606,356.6787947,91.06558912,32.28164758,0,0,0,0
8/20/2015 6:00,139.1756232,505.4417682,85.47630206,38.71140196,0,0,0,0
8/20/2015 7:00,141.4965111,496.2331778,92.10075144,39.28957627,0,0,0,0
8/20/2015 8:00,142.0627602,419.3521322,97.90545136,39.29110268,0,0,0,0
8/20/2015 9:00,137.1579158,521.0192646,117.0515079,45.21157542,0,0,0,0
8/20/2015 10:00,173.7502652,418.2185664,96.80108584,37.25078905,0,0,0,0
8/20/2015 11:00,170.9036653,444.3655148,99.31628301,40.00926179,0,0,0,0
8/20/2015 12:00,162.8059306,423.6284668,100.2591187,43.42436284,0,0,0,0
8/20/2015 13:00,183.7461859,463.9175597,102.4780619,31.55258294,0,0,0,0
8/20/2015 14:00,163.3052425,428.3235556,74.87019218,42.14024556,0,0,0,0
8/20/2015 15:00,182.5958916,349.0663225,118.492833,53.29902248,0,0,0,0
8/20/2015 16:00,150.0094161,435.3883758,88.93881107,36.00997282,0,0,0,0
8/20/2015 17:00,180.4511583,439.5229505,95.0691793,35.96276435,0,0,0,0
8/20/2015 18:00,172.3822967,453.9767945,83.44371361,37.1662012,0,0,0,0
8/20/2015 19:00,176.5856126,436.3184303,92.31346292,37.37497329,0,0,0,0
8/20/2015 20:00,154.7473515,380.4960405,100.9223057,50.94092261,0,0,0,0
8/20/2015 21:00,185.235547,427.0965541,90.83115547,26.93889536,0,0,0,0
8/20/2015 22:00,152.9052913,468.2826336,97.19043002,34.45284232,0,0,0,0
8/20/2015 23:00,145.23678,445.2741512,108.6578232,34.75933369,0,0,0,0
8/21/2015 0:00,161.5208639,538.2703608,108.2333797,37.35120856,0,0,0,0
8/21/2015 1:00,150.9073387,408.2086728,107.9095737,42.27916734,0,0,0,0
8/21/2015 2:00,178.9095838,433.9039767,99.69864341,34.35786423,0,0,0,0
8/21/2015 3:00,179.1269512,384.3583346,100.6844613,30.3307083,0,0,0,0
8/21/2015 4:00,170.4110543,392.0433209,95.22092504,40.82623499,0,0,0,0
8/21/2015 5:00,152.1914139,498.0251374,80.67341805,27.2059998,0,0,0,0
8/21/2015 6:00,168.3673754,381.7817221,102.1138194,44.62463897,0,0,0,0
8/21/2015 7:00,160.0854269,457.463524,107.0380281,44.17271404,0,0,0,0
8/21/2015 8:00,168.4845392,320.4489898,99.1823232,41.03824414,0,0,0,0
8/21/2015 9:00,207.0601576,451.3837781,86.06519128,38.83055998,0,0,0,0
8/21/2015 10:00,159.5340478,387.5306057,90.83946133,40.77396918,0,0,0,0
8/21/2015 11:00,163.9282608,353.0317858,93.39307079,43.36732411,0,0,0,0
8/21/2015 12:00,155.5900512,420.3351268,102.1568501,38.85713519,0,0,0,0
8/21/2015 13:00,169.7877824,439.3728551,121.0944538,35.8396542,0,0,0,0
8/21/2015 14:00,171.7048472,485.3731469,101.3972738,35.89525941,0,0,0,0
8/21/2015 15:00,172.040903,424.0467677,104.0120741,43.09251448,0,0,0,0
8/21/2015 16:00,177.9470413,406.0027518,97.66870064,41.46650336,0,0,0,0
8/21/2015 17:00,175.1113525,471.4930815,107.525792,36.51891353,0,0,0,0
8/21/2015 18:00,168.809074,418.90069,107.1345579,37.16371912,0,0,0,0
8/21/2015 19:00,169.1357467,499.48184,115.7237975,40.30999815,0,0,0,0
8/21/2015 20:00,175.3239456,419.9035079,103.7510691,44.04564183,0,0,0,0
8/21/2015 21:00,151.948471,493.2693169,93.38004009,29.84872341,0,0,0,0
8/21/2015 22:00,193.3219227,427.9472038,97.21279366,35.65685615,0,0,0,0
8/21/2015 23:00,167.2052105,506.1058429,134.6896862,39.83994957,0,0,0,0
8/22/2015 0:00,187.706372,444.8002,89.39657868,42.25061748,0,0,0,0
8/22/2015 1:00,158.93137,425.8873302,90.47168591,39.98640632,0,0,0,0
8/22/2015 2:00,163.0852066,463.3466969,104.1862222,27.94306798,0,0,0,0
8/22/2015 3:00,167.6552441,464.3894184,108.9714268,39.78835006,0,0,0,0
8/22/2015 4:00,148.3267885,394.1640016,112.2284769,41.87787373,0,0,0,0
8/22/2015 5:00,167.2632467,504.2366065,98.74811263,48.58056935,0,0,0,0
8/22/2015 6:00,187.5618811,497.2483525,110.3566203,38.82067424,0,0,0,0
8/22/2015 7:00,181.001673,462.0751632,88.12287484,39.27341572,0,0,0,0
8/22/2015 8:00,163.479342,403.4226035,91.84101894,43.33682015,0,0,0,0
8/22/2015 9:00,177.1278044,436.2411016,97.31961965,37.85894935,0,0,0,0
8/22/2015 10:00,185.5254823,419.8790299,106.0258109,34.32553934,0,0,0,0
8/22/2015 11:00,163.1022135,531.09572,89.65463406,42.17384681,0,0,0,0
8/22/2015 12:00,172.2331926,469.8912591,126.3870655,41.9222648,0,0,0,0
8/22/2015 13:00,188.0539266,397.7574344,106.6433231,44.08028682,0,0,0,0
8/22/2015 14:00,176.7904752,588.708461,104.5070747,43.45190615,0,0,0,0
8/22/2015 15:00,155.1445377,357.7802861,97.96903407,43.91922086,0,0,0,0
8/22/2015 16:00,173.4398141,453.3220333,116.5510975,33.96061329,0,0,0,0
8/22/2015 17:00,173.9896538,556.9089558,101.5191155,38.5190696,0,0,0,0
8/22/2015 18:00,162.3606937,408.909009,95.42269632,43.91107309,0,0,0,0
8/22/2015 19:00,134.4093824,433.5728767,96.18961648,38.79797472,0,0,0,0
8/22/2015 20:00,160.106222,404.4335303,83.94008145,42.18426807,0,0,0,0
8/22/2015 21:00,156.3522476,415.8759656,87.78058492,40.42492157,0,0,0,0
8/22/2015 22:00,186.6068575,488.7764426,108.0072255,32.16627337,0,0,0,0
8/22/2015 23:00,156.5895415,530.081229,82.6896904,41.43962587,0,0,0,0
8/23/2015 0:00,163.1620272,489.0882477,95.80809782,41.52981852,0,0,0,0
8/23/2015 1:00,150.6747436,510.319412,78.85353699,35.79210471,0,0,0,0
8/23/2015 2:00,185.7529496,399.810682,98.72884292,20.77149167,0,0,0,0
8/23/2015 3:00,173.0544197,562.8517872,98.13402434,36.0153904,0,0,0,0
8/23/2015 4:00,211.7317294,504.5094914,109.8830303,41.40980803,0,0,0,0
8/23/2015 5:00,159.5161401,391.2710386,91.30513468,43.2758652,0,0,0,0
8/23/2015 6:00,165.232759,422.8508889,111.9581356,43.61492477,0,0,0,0
8/23/2015 7:00,187.3613227,422.9844673,102.6959434,42.4699115,0,0,0,0
8/23/2015 8:00,141.7763276,401.4851315,83.98628648,41.56275379,0,0,0,0
8/23/2015 9:00,152.2630133,421.5246224,107.9932016,28.17660475,0,0,0,0
8/23/2015 10:00,177.7925634,427.0247352,94.76695196,43.13206163,0,0,0,0
8/23/2015 11:00,180.9408173,363.0575745,92.52485955,45.44274255,0,0,0,0
8/23/2015 12:00,170.1817102,458.7440252,81.81604342,38.46993556,0,0,0,0
8/23/2015 13:00,144.4575403,499.3515075,89.73969849,39.73795239,0,0,0,0
8/23/2015 14:00,172.4850772,425.8426986,120.3151,41.87333083,0,0,0,0
8/23/2015 15:00,165.1840634,467.345441,95.28366668,48.24370818,0,0,0,0
8/23/2015 16:00,184.9779121,475.4171973,117.1138189,39.73897057,0,0,0,0
8/23/2015 17:00,199.0342924,518.5383257,108.555597,49.28636732,0,0,0,0
8/23/2015 18:00,176.4319306,463.0782969,101.3730073,46.04834115,0,0,0,0
8/23/2015 19:00,183.553518,461.8713123,108.6426592,46.20482088,0,0,0,0
8/23/2015 20:00,147.7705806,469.659739,85.17731207,42.79951043,0,0,0,0
8/23/2015 21:00,186.934376,484.8368184,96.43070822,40.84982626,0,0,0,0
8/23/2015 22:00,193.9547025,355.9629668,98.53141713,34.31681062,0,0,0,0
8/23/2015 23:00,153.3715043,388.2913806,105.3600027,46.78278148,0,0,0,0
8/24/2015 0:00,148.9123589,462.6972935,89.10856247,41.02765177,0,0,0,0
8/24/2015 1:00,162.4472668,436.2820772,96.34661466,48.29130707,0,0,0,0
8/24/2015 2:00,169.0037056,415.3636998,108.7468973,43.34234188,0,0,0,0
8/24/2015 3:00,148.3680425,440.548915,108.0400437,33.78898142,0,0,0,0
8/24/2015 4:00,141.301517,418.1102384,113.6275087,47.18189587,0,0,0,0
8/24/2015 5:00,182.6373969,439.7786514,102.0611755,38.36712355,0,0,0,0
8/24/2015 6:00,156.1785733,517.5756429,98.38560131,37.69831697,0,0,0,0
8/24/2015 7:00,182.7279126,431.9014775,105.9072186,34.45546429,0,0,0,0
8/24/2015 8:00,198.6636306,538.7113666,113.5610488,44.86350627,0,0,0,0
8/24/2015 9:00,170.2950605,326.219891,109.6262167,43.09195216,0,0,0,0
8/24/2015 10:00,177.8853847,510.8749675,101.3215796,42.1622216,0,0,0,0
8/24/2015 11:00,168.6457121,451.4691262,105.3199477,37.99590493,0,0,0,0
8/24/2015 12:00,172.9546654,448.2292836,83.42360577,30.69210708,0,0,0,0
8/24/2015 13:00,197.0919283,503.8266217,95.46497209,37.82423978,0,0,0,0
8/24/2015 14:00,163.4192833,515.4452077,109.6171521,50.05613952,0,0,0,0
8/24/2015 15:00,187.4331013,386.3770127,108.6758679,45.01571647,0,0,0,0
8/24/2015 16:00,186.339249,420.958817,95.71542297,41.51796377,0,0,0,0
8/24/2015 17:00,178.9839286,394.6269679,99.65478007,45.76976594,0,0,0,0
8/24/2015 18:00,157.9554761,412.5146539,100.9857727,37.43244249,0,0,0,0
8/24/2015 19:00,161.8694425,431.4963882,84.95434708,41.73263561,0,0,0,0
8/24/2015 20:00,148.0826896,441.1749869,104.1735199,38.39017671,0,0,0,0
8/24/2015 21:00,166.4704099,485.8627017,93.20523592,44.60079992,0,0,0,0
8/24/2015 22:00,187.5787592,429.5286999,98.07213469,41.91111282,0,0,0,0
8/24/2015 23:00,172.2785964,421.9734491,106.8116107,42.16815568,0,0,0,0
8/25/2015 0:00,172.9997448,422.9672038,98.17520486,49.09753164,0,0,0,0
8/25/2015 1:00,170.2607939,446.1242748,118.5297059,42.00951791,0,0,0,0
8/25/2015 2:00,162.9361746,430.5321605,95.67778917,50.90149379,0,0,0,0
8/25/2015 3:00,155.7001424,373.0614168,101.4010089,49.73017928,0,0,0,0
8/25/2015 4:00,184.6000752,477.0016727,108.3426124,40.52266057,0,0,0,0
8/25/2015 5:00,176.8323009,492.5449678,90.34692843,50.90349062,0,0,0,0
8/25/2015 6:00,155.8334199,495.2256145,102.6463433,40.52807313,0,0,0,0
8/25/2015 7:00,152.6933372,461.6320593,105.111926,36.94972896,0,0,0,0
8/25/2015 8:00,160.1881611,447.2932856,79.58854447,33.93890556,0,0,0,0
8/25/2015 9:00,174.797773,412.8943402,111.0263472,51.79750711,0,0,0,0
8/25/2015 10:00,159.8528082,577.3015015,89.63029363,39.61870926,0,0,0,0
8/25/2015 11:00,170.9859669,473.1232658,112.2799365,33.39382228,0,0,0,0
8/25/2015 12:00,199.8353127,458.9786028,93.69998446,34.67011304,0,0,0,0
8/25/2015 13:00,165.9061275,511.6810759,111.7111898,36.95076147,0,0,0,0
8/25/2015 14:00,164.1459761,403.0096237,84.78691956,33.04988975,0,0,0,0
8/25/2015 15:00,198.1502582,447.579202,102.2824988,40.18970051,0,0,0,0
8/25/2015 16:00,175.3305063,477.0964366,83.98406786,48.05318927,0,0,0,0
8/25/2015 17:00,164.7683054,438.7374016,93.00822832,46.56340025,0,0,0,0
8/25/2015 18:00,166.0425537,464.9747626,120.3569342,44.54154032,0,0,0,0
8/25/2015 19:00,165.2296916,395.654468,100.7822897,36.0304401,0,0,0,0
8/25/2015 20:00,177.6404799,399.4330101,110.9718547,29.61047656,0,0,0,0
8/25/2015 21:00,199.3170486,545.1564316,102.2890986,27.283846,0,0,0,1
8/25/2015 22:00,171.5883874,439.2246858,92.77562872,29.78891724,0,0,0,1
8/25/2015 23:00,159.657166,442.6192491,76.84032163,37.27817895,0,0,0,1
8/26/2015 0:00,172.0317081,346.381473,95.59214233,33.05372265,0,0,0,1
8/26/2015 1:00,165.5942993,440.4586086,94.12781173,43.07001541,0,0,0,1
8/26/2015 2:00,146.9175753,429.7287792,108.2319805,37.89733301,0,0,0,1
8/26/2015 3:00,143.9267595,397.2057675,104.1000824,33.88745351,0,0,0,1
8/26/2015 4:00,171.0353823,377.2375043,107.795162,32.02795789,0,0,0,1
8/26/2015 5:00,171.8995208,432.5105831,106.025679,37.06302425,0,0,0,1
8/26/2015 6:00,187.3120076,469.75733,108.3317642,37.83763636,0,0,0,1
8/26/2015 7:00,157.8701154,387.356122,94.43676815,36.16960988,0,0,0,0
8/26/2015 8:00,162.5407417,381.8008498,90.92561016,47.04508852,0,0,0,0
8/26/2015 9:00,175.1081047,439.0871048,89.92181184,50.02712926,0,0,0,0
8/26/2015 10:00,162.3320626,451.4146298,96.19169999,36.1975904,0,0,0,1
8/26/2015 11:00,172.0912032,428.0254025,100.6599716,42.54365746,0,0,0,0
8/26/2015 12:00,178.7779118,482.8139254,80.0891291,43.9508073,0,0,0,0
8/26/2015 13:00,169.9023619,472.8278285,101.4818694,36.13788407,0,0,0,0
8/26/2015 14:00,172.1393663,501.7435121,88.90521411,40.01702388,0,0,0,0
8/26/2015 15:00,137.3180851,456.7081295,102.7166753,47.42278025,0,0,0,0
8/26/2015 16:00,166.6718401,447.6138681,96.21547517,43.27317722,0,0,0,0
8/26/2015 17:00,146.5776525,384.9307213,98.96721134,42.31267956,0,0,0,0
8/26/2015 18:00,169.160546,418.4474446,123.5687465,38.62692621,0,0,0,0
8/26/2015 19:00,168.7148391,521.2924976,102.3532867,38.33857892,0,0,0,0
8/26/2015 20:00,180.1976913,435.6290276,83.62248033,46.27319171,0,0,0,0
8/26/2015 21:00,165.1041214,531.0721148,119.1285976,42.09770422,0,0,0,0
8/26/2015 22:00,171.2399597,405.7466025,92.14501037,40.02553594,0,0,0,0
8/26/2015 23:00,162.6202018,411.4491273,93.28388927,42.31920982,0,0,0,0
8/27/2015 0:00,176.751314,446.0038372,79.08351082,45.67510469,0,0,0,1
8/27/2015 1:00,164.1231061,422.9809847,101.9538871,44.20995234,0,0,0,1
8/27/2015 2:00,170.8098466,474.6926404,109.0339149,40.20873967,0,0,0,1
8/27/2015 3:00,175.2140895,435.8678838,111.5465251,37.8179332,0,0,0,1
8/27/2015 4:00,172.1761765,449.3309521,105.1642487,39.22734477,0,0,0,1
8/27/2015 5:00,155.8208383,458.8305155,101.6190751,40.67365278,0,0,0,1
8/27/2015 6:00,171.0768827,382.7766812,109.7156834,39.15623767,0,0,0,1
8/27/2015 7:00,178.5561175,428.0824921,86.1053965,46.98874825,0,0,0,1
8/27/2015 8:00,172.6147801,431.8511907,94.26094407,43.68581791,0,0,0,1
8/27/2015 9:00,171.0893782,404.9689483,113.6071842,47.32497718,0,0,0,1
8/27/2015 10:00,186.553593,384.1261931,111.2984752,48.6585611,0,0,0,1
8/27/2015 11:00,168.3678837,496.3278425,80.74910028,42.81157104,0,0,0,1
8/27/2015 12:00,175.1054022,446.1014625,123.7934726,31.26472624,0,0,0,1
8/27/2015 13:00,166.8023808,476.320466,99.77241441,27.23776989,0,0,0,1
8/27/2015 14:00,194.3979176,391.1453161,94.26266703,40.31031478,0,0,0,1
8/27/2015 15:00,146.9698637,440.0473133,108.7550158,42.32031453,0,0,0,0
8/27/2015 16:00,183.110675,530.3431435,116.808226,35.38826639,0,0,0,0
8/27/2015 17:00,177.6309044,431.7976914,99.00774527,38.66016245,0,0,0,0
8/27/2015 18:00,161.6565741,553.7554924,100.549049,43.92501825,0,0,0,0
8/27/2015 19:00,170.732586,432.78157,111.8058938,31.75599656,0,0,0,0
8/27/2015 20:00,152.5510108,526.5352829,91.39978659,45.74078152,0,0,0,0
8/27/2015 21:00,190.8953981,413.7771437,106.8007504,40.2607964,0,0,0,0
8/27/2015 22:00,183.6094628,481.7743983,104.433479,37.24255507,0,0,0,0
8/27/2015 23:00,185.7531537,524.5908843,110.3504045,39.52925325,0,0,0,0
8/28/2015 0:00,202.9975377,506.9286227,84.20276113,33.26639824,0,0,0,0
8/28/2015 1:00,147.1813903,422.0929445,101.5504951,39.89214337,0,0,0,0
8/28/2015 2:00,160.9801462,477.5479815,96.84459314,30.19066942,0,0,0,0
8/28/2015 3:00,148.8006549,495.5920601,84.99809535,38.96766897,0,0,0,0
8/28/2015 4:00,189.1978107,509.9166675,94.18124086,38.08137747,0,0,0,0
8/28/2015 5:00,170.0082354,468.5510612,98.36504779,38.78760916,0,0,0,0
8/28/2015 6:00,138.9706256,466.0363616,89.40971525,35.11308681,0,0,0,0
8/28/2015 7:00,166.6729395,468.5407747,90.41462691,44.67353075,0,0,0,0
8/28/2015 8:00,152.1672544,501.5380047,89.7015602,43.24145419,0,0,0,0
8/28/2015 9:00,169.2046326,425.3531705,93.3641392,45.70256941,0,0,0,0
8/28/2015 10:00,176.2405613,509.0617355,96.31116955,41.23069121,0,0,0,0
8/28/2015 11:00,165.2886581,559.5169536,83.70141384,48.12893058,0,0,0,0
8/28/2015 12:00,171.5914857,413.5187925,99.20816148,44.20277369,0,0,0,0
8/28/2015 13:00,194.3812797,477.911939,115.1941313,38.47334737,0,0,0,0
8/28/2015 14:00,164.4816978,473.5830204,105.1774214,41.13070731,0,0,0,0
8/28/2015 15:00,180.1575823,454.389428,102.9350547,33.58870185,0,0,0,0
8/28/2015 16:00,187.2908306,460.4482269,111.8017429,40.78707903,0,0,0,0
8/28/2015 17:00,144.7687314,480.9593294,131.2718821,43.89214984,0,0,0,0
8/28/2015 18:00,174.5733098,459.5026434,132.962783,38.34415935,0,0,0,0
8/28/2015 19:00,194.2940501,463.4380153,123.0438129,35.29907636,0,0,0,0
8/28/2015 20:00,162.447661,404.2753146,126.7598865,40.66388261,0,0,0,0
8/28/2015 21:00,167.3287549,431.9623882,127.959177,36.90817189,0,0,0,0
8/28/2015 22:00,164.901647,504.9149533,137.2435327,40.62634875,0,0,0,0
8/28/2015 23:00,193.5860226,433.1083108,131.6948325,47.86406024,0,0,1,0
8/29/2015 0:00,181.5261243,421.7599102,142.8774443,37.38577983,0,0,1,0
8/29/2015 1:00,180.0243424,406.547481,132.6906482,41.26501539,0,0,1,0
8/29/2015 2:00,157.7102927,338.7004618,135.0134314,37.71819045,0,0,1,0
8/29/2015 3:00,172.471716,487.0885568,134.606541,43.66526462,0,0,1,0
8/29/2015 4:00,135.5937701,409.8737837,124.6838957,48.85595873,0,0,1,0
8/29/2015 5:00,143.7926407,549.4691584,120.9070362,40.714333,0,0,1,0
8/29/2015 6:00,181.9262411,453.2528517,121.3801177,34.09756521,0,0,1,0
8/29/2015 7:00,167.0980877,423.4765607,125.8327493,39.46612454,0,0,1,0
8/29/2015 8:00,147.9372228,418.4230949,119.3054661,37.44022022,0,0,1,0
8/29/2015 9:00,165.4809779,359.3653208,125.422832,44.82025822,0,0,1,0
8/29/2015 10:00,164.2760221,468.1112059,124.6427916,32.10496147,0,0,1,0
8/29/2015 11:00,146.6978658,452.1836637,135.8527689,31.02222363,0,0,1,0
8/29/2015 12:00,175.6921594,447.6837492,137.0394214,44.55880251,0,0,1,0
8/29/2015 13:00,196.5669607,490.6480548,136.924499,44.66581832,0,0,1,0
8/29/2015 14:00,153.4204513,412.1918305,125.7066245,39.76105146,0,0,1,0
8/29/2015 15:00,165.2567779,517.8775219,120.3339174,44.54555959,0,0,1,0
8/29/2015 16:00,171.788648,430.3569939,114.3072021,35.96610028,0,0,1,0
8/29/2015 17:00,170.5326202,343.1217412,131.8217322,37.15593841,0,0,1,0
8/29/2015 18:00,151.8146391,482.8089962,116.689304,40.56149543,0,0,1,0
8/29/2015 19:00,192.2365526,399.1039353,131.5410162,38.68304304,0,0,1,0
8/29/2015 20:00,153.4924303,505.1338934,125.6747562,31.74314137,0,0,1,0
8/29/2015 21:00,180.8409897,494.8821129,137.1038196,36.90669056,0,0,1,0
8/29/2015 22:00,170.2235025,562.401893,109.9846536,35.16722221,0,0,1,0
8/29/2015 23:00,163.5521759,288.8991193,124.9734195,50.00029575,0,0,1,0
8/30/2015 0:00,152.3162647,538.2795427,115.6029251,36.44072034,0,0,1,0
8/30/2015 1:00,181.9172414,498.5983464,126.981606,40.80552521,0,0,1,0
8/30/2015 2:00,167.176766,508.2383415,127.6050585,47.85883963,0,0,1,0
8/30/2015 3:00,164.5971921,430.264705,131.9032403,41.05846501,0,0,1,0
8/30/2015 4:00,179.5538944,450.191491,136.8776648,40.03720859,0,0,1,0
8/30/2015 5:00,169.6099247,391.776971,134.2455885,40.5627487,0,0,1,0
8/30/2015 6:00,180.6099296,464.9872248,125.5252213,49.53997145,0,0,1,0
8/30/2015 7:00,182.6533405,483.0731628,144.9719639,34.06253924,0,0,1,0
8/30/2015 8:00,159.187349,447.5510039,113.3492926,40.23079437,0,0,1,0
8/30/2015 9:00,180.2325274,482.999304,129.5478396,49.1422502,0,0,1,0
8/30/2015 10:00,166.863933,447.0209046,133.1948288,42.24489201,0,0,1,0
8/30/2015 11:00,181.6989004,429.9072113,127.0569736,42.56126591,0,0,1,0
8/30/2015 12:00,153.1930183,336.7341268,130.0688174,28.90525397,0,0,1,0
8/30/2015 13:00,183.8370941,546.2794749,132.0486963,34.33320683,0,0,1,0
8/30/2015 14:00,174.0676606,508.7367659,130.7537055,45.26778128,0,0,1,0
8/30/2015 15:00,156.4619039,416.8809648,136.5671089,45.32118034,0,0,1,0
8/30/2015 16:00,135.5905787,425.5267861,120.9599965,46.75932388,0,0,1,0
8/30/2015 17:00,129.4660715,479.5188683,112.3350059,45.86335507,0,0,1,0
8/30/2015 18:00,191.7975932,461.4535544,105.4850409,37.51389751,0,0,1,0
8/30/2015 19:00,153.0356908,396.1182795,110.7082135,33.28129758,0,0,1,0
8/30/2015 20:00,169.1094653,519.9164397,113.3439035,40.0623525,0,0,1,0
8/30/2015 21:00,170.7962311,439.8208756,117.4729481,40.49260351,0,0,1,0
8/30/2015 22:00,176.2113779,402.8690084,101.7703491,43.8826152,0,0,1,0
8/30/2015 23:00,180.9917709,437.6261616,98.12691141,52.26306678,0,0,1,0
8/31/2015 0:00,188.5958979,398.9730495,97.39817411,43.00302117,0,0,1,0
8/31/2015 1:00,159.717756,414.2535112,85.54588412,47.77810546,0,0,1,0
8/31/2015 2:00,161.5243908,445.5930037,107.5088509,33.4289682,0,0,1,0
8/31/2015 3:00,161.8040995,419.0818915,94.59919973,37.49301978,0,0,1,0
8/31/2015 4:00,180.0887937,466.2910312,108.6696052,38.59787039,0,0,1,0
8/31/2015 5:00,182.0790398,409.8096051,105.5586526,38.69101717,0,0,1,0
8/31/2015 6:00,168.9673034,456.5357401,107.3853885,42.18734112,0,0,1,0
8/31/2015 7:00,175.0825534,393.6383044,91.49187794,40.67082967,0,0,1,0
8/31/2015 8:00,159.4262334,505.0431079,99.25637385,38.16997781,0,0,1,0
8/31/2015 9:00,158.9277985,436.5177565,80.48226667,42.58974784,0,0,1,0
8/31/2015 10:00,181.1506189,340.3933288,108.797139,41.63056563,0,0,1,0
8/31/2015 11:00,172.2316681,362.2623841,89.88820984,42.23447428,0,0,1,0
8/31/2015 12:00,165.2404168,489.4460282,102.8583774,42.44100129,0,0,1,0
8/31/2015 13:00,159.5094503,453.6773448,105.1549849,46.37786519,0,0,1,0
8/31/2015 14:00,204.7411144,459.2637725,95.42538082,44.662077,0,0,1,0
8/31/2015 15:00,149.6204093,458.3543388,96.86858246,36.29359114,0,0,1,0
8/31/2015 16:00,185.8736957,488.0427796,94.34438951,29.50818025,0,0,1,0
8/31/2015 17:00,168.532967,370.1983522,100.144147,36.54015655,0,0,1,0
8/31/2015 18:00,191.2353573,403.1180792,111.8865748,29.94182837,0,0,1,0
8/31/2015 19:00,189.7606621,498.822301,95.39447731,29.81066269,0,0,1,0
8/31/2015 20:00,195.3384385,459.5509925,102.9140259,45.67046396,0,0,1,0
8/31/2015 21:00,197.449496,488.739051,106.830223,40.74909747,0,0,1,0
8/31/2015 22:00,158.7321016,507.2937563,109.4946352,45.66135588,0,0,1,0
8/31/2015 23:00,156.8486897,399.8582046,96.10146579,32.54203778,0,0,1,0
9/1/2015 0:00,151.4866603,525.5117094,93.87478611,44.8536319,0,0,1,0
9/1/2015 1:00,201.2369914,582.2977692,71.45078052,44.77476169,0,0,1,0
9/1/2015 2:00,165.5804224,423.0377165,103.2354101,41.13071818,0,0,1,0
9/1/2015 3:00,155.1489929,440.5755882,102.0560948,38.56697126,0,0,1,0
9/1/2015 4:00,166.5956815,545.8422989,102.5198348,36.74916708,0,0,1,0
9/1/2015 5:00,164.5885188,479.8445935,95.83912627,45.17193018,0,0,1,0
9/1/2015 6:00,139.8681682,407.7707583,106.0793752,37.22654987,0,0,1,0
9/1/2015 7:00,162.7865035,411.92289,88.50407219,35.46315132,0,0,1,0
9/1/2015 8:00,157.7328093,470.5766148,100.0932608,34.13134718,0,0,1,0
9/1/2015 9:00,191.5490487,422.3675608,100.7958453,44.87976739,0,0,1,0
9/1/2015 10:00,175.4946175,402.1818301,99.73569846,37.23545858,0,0,1,0
9/1/2015 11:00,171.0049207,430.1691748,115.5548165,47.89598722,0,0,1,0
9/1/2015 12:00,163.1819351,425.6045276,108.820726,42.01825596,0,0,1,0
9/1/2015 13:00,154.8243654,401.1095978,118.5886556,34.34641085,0,0,1,0
9/1/2015 14:00,167.0579826,443.7392219,92.50768993,50.01080113,0,0,1,0
9/1/2015 15:00,180.6120835,538.1990394,93.52060456,43.23657742,0,0,1,0
9/1/2015 16:00,192.9732535,484.112511,104.1797252,38.55129566,0,0,1,0
9/1/2015 17:00,185.4197767,447.1386086,87.18987141,44.60972304,0,0,1,0
9/1/2015 18:00,157.8642374,456.00165,108.8160234,38.66789162,0,0,1,0
9/1/2015 19:00,180.3479903,474.2739071,87.03946134,50.0746296,0,0,1,0
9/1/2015 20:00,164.2497292,493.2982992,94.68167303,43.07300281,0,0,1,0
9/1/2015 21:00,216.3339862,367.0549605,97.61539726,45.52533457,0,0,1,0
9/1/2015 22:00,191.6203365,484.2727131,100.7729255,44.17734875,0,0,0,0
9/1/2015 23:00,173.8005313,413.3166972,97.48809865,44.75625056,0,0,0,0
9/2/2015 0:00,160.4186528,441.7087345,91.06756921,40.43590314,0,0,0,0
9/2/2015 1:00,166.0065042,431.2128228,101.2172863,43.20755857,0,0,0,0
9/2/2015 2:00,186.8023652,487.0023459,96.63184669,32.39412266,0,0,0,0
9/2/2015 3:00,171.959287,449.4422704,99.35057133,35.96019896,0,0,0,0
9/2/2015 4:00,166.4132265,501.8509098,85.55557947,40.87841502,0,0,0,0
9/2/2015 5:00,179.3774379,386.5514867,92.58714259,39.39518495,0,0,0,0
9/2/2015 6:00,182.4899526,449.8217526,104.7050199,46.80369442,0,0,0,0
9/2/2015 7:00,178.1497911,411.7362896,80.51474526,47.92060526,0,0,0,0
9/2/2015 8:00,181.176505,488.4151472,109.4872455,37.20012448,0,0,0,0
9/2/2015 9:00,193.2883127,386.9544149,98.90124657,39.20432518,0,0,0,0
9/2/2015 10:00,176.4511962,476.0045363,88.56836375,36.50306653,0,0,0,0
9/2/2015 11:00,162.0922173,507.6706888,111.2966221,43.53348252,0,0,0,0
9/2/2015 12:00,185.2361187,499.4822517,82.87676468,48.40267005,0,0,0,0
9/2/2015 13:00,174.8715056,470.5632933,89.56746556,35.14920894,0,0,0,0
9/2/2015 14:00,176.6437226,520.7322804,87.83812875,49.3448567,0,0,0,0
9/2/2015 15:00,176.6745517,428.2371324,96.67016868,33.53416688,0,0,0,0
9/2/2015 16:00,148.3644298,508.7683186,100.9253793,48.25428958,0,0,0,0
9/2/2015 17:00,180.3757783,412.0126175,97.08102493,43.31988382,0,0,0,1
9/2/2015 18:00,165.6189938,530.4830035,109.412657,46.17318422,0,0,0,1
9/2/2015 19:00,151.8307517,453.9662991,109.0734117,44.5831659,0,0,0,1
9/2/2015 20:00,165.1653961,466.2750056,103.2712408,37.45986308,0,0,0,0
9/2/2015 21:00,169.9954853,396.1985314,119.3338322,37.03012354,0,0,0,0
9/2/2015 22:00,174.957991,473.8120914,92.05442881,35.26853023,0,0,0,0
9/2/2015 23:00,173.1899591,475.484486,95.44849542,43.90407446,0,0,0,0
9/3/2015 0:00,146.2461684,451.2464655,99.15417085,45.89162603,0,0,0,0
9/3/2015 1:00,170.8073982,489.7866178,87.6000688,44.23074988,0,0,0,0
9/3/2015 2:00,170.6670687,453.7974689,107.7905917,48.60167847,0,0,0,0
9/3/2015 3:00,171.0921759,434.8363243,95.99435819,30.6662383,0,0,0,0
9/3/2015 4:00,172.0030432,468.0088277,92.14245229,39.82908109,0,0,0,0
9/3/2015 5:00,177.987165,513.740167,74.76888385,37.50507951,0,0,0,0
9/3/2015 6:00,138.4637006,492.3537764,113.0321348,35.13334785,0,0,0,0
9/3/2015 7:00,190.2570355,364.3929061,103.0083046,42.10876659,0,0,0,0
9/3/2015 8:00,182.1034787,526.4712395,90.35313611,33.10507027,0,0,0,0
9/3/2015 9:00,162.8855496,415.8150166,91.51711324,33.47315827,0,0,0,0
9/3/2015 10:00,144.9167629,507.2467811,94.83939771,37.76073769,0,0,0,0
9/3/2015 11:00,201.212878,455.9682113,82.1722375,31.10447111,0,0,0,0
9/3/2015 12:00,168.2877127,434.6734215,97.97673448,43.83256065,0,0,0,0
9/3/2015 13:00,174.4326447,393.8074176,94.21221756,34.73096146,0,0,0,0
9/3/2015 14:00,169.40615,441.0114721,110.4869867,39.02484593,0,0,0,0
9/3/2015 15:00,166.1898446,502.3995583,102.3534469,39.59387652,0,0,0,0
9/3/2015 16:00,147.7666873,441.7367677,101.6697701,40.52978617,0,0,0,0
9/3/2015 17:00,194.9740341,501.1669685,104.5755717,48.91251216,0,0,0,0
9/3/2015 18:00,187.3792475,454.4593374,112.2335424,38.5735124,0,0,0,0
9/3/2015 19:00,150.5449692,530.6198538,115.2887002,36.99114917,0,0,0,0
9/3/2015 20:00,188.9767096,509.7360262,96.87024487,37.39011328,0,0,0,0
9/3/2015 21:00,165.7792606,501.8778075,98.57557261,43.97606956,0,0,0,0
9/3/2015 22:00,185.7965969,517.7689778,108.7887603,40.1729185,0,0,0,0
9/3/2015 23:00,180.4310919,396.4717114,85.40544107,33.61462012,0,0,0,0
9/4/2015 0:00,160.2163009,500.5569342,97.79655081,36.32784159,0,0,0,0
9/4/2015 1:00,148.3249451,470.2098137,88.4667269,39.38400755,0,0,0,0
9/4/2015 2:00,190.6084136,467.7186937,109.3548913,47.06890596,0,0,0,0
9/4/2015 3:00,182.194944,402.8716786,115.3763548,46.92060574,0,0,0,0
9/4/2015 4:00,191.9582192,521.3683414,104.80656,39.2127611,0,0,0,0
9/4/2015 5:00,152.4439419,423.6744788,110.1379108,51.00055111,0,0,0,0
9/4/2015 6:00,140.2109006,426.2779003,102.8970129,44.3177365,0,0,0,0
9/4/2015 7:00,148.1248849,465.195244,89.78170489,43.9639927,0,0,0,0
9/4/2015 8:00,179.1414428,414.4329379,103.9299676,30.66964612,0,0,0,0
9/4/2015 9:00,169.0436818,476.0698368,125.0728666,40.89873296,0,0,0,0
9/4/2015 10:00,155.4005855,514.0575131,120.0126303,38.51475234,0,0,0,0
9/4/2015 11:00,157.7611872,460.0593746,119.3403641,39.84993189,0,0,0,0
9/4/2015 12:00,171.6458743,454.1531207,88.99498978,37.48871867,0,0,0,0
9/4/2015 13:00,172.1007735,566.2813295,97.47082534,36.22998528,0,0,0,0
9/4/2015 14:00,169.3057022,511.118368,103.0040244,52.05762364,0,0,0,0
9/4/2015 15:00,173.5499055,398.9445497,103.2723739,34.32585904,0,0,0,0
9/4/2015 16:00,183.4879377,507.0323385,106.2385665,40.37998052,0,0,0,0
9/4/2015 17:00,175.184814,438.9909079,99.82650846,41.79261346,0,0,0,0
9/4/2015 18:00,185.5331448,450.3545946,88.88854221,35.42122662,0,0,0,0
9/4/2015 19:00,180.8585135,471.3277209,96.7231519,39.63074511,0,0,0,0
9/4/2015 20:00,169.0147433,509.4380839,106.3840435,40.76737355,0,0,0,0
9/4/2015 21:00,183.3339744,517.8057885,110.4599443,46.92797692,0,0,0,0
9/4/2015 22:00,165.7494338,497.5692155,95.3209362,42.65536451,0,0,0,0
9/4/2015 23:00,171.9678523,426.7166584,97.51531885,41.42136106,0,0,0,0
9/5/2015 0:00,206.023167,411.6687341,88.68447903,30.34459079,0,0,0,0
9/5/2015 1:00,170.5053247,389.8663997,110.4969925,36.58926766,0,0,0,0
9/5/2015 2:00,162.5696015,456.6912367,89.28128815,39.95733711,0,0,0,0
9/5/2015 3:00,185.6288322,497.6733684,96.71847323,42.68511422,0,0,0,0
9/5/2015 4:00,195.4212656,472.5583908,118.005106,41.02943082,0,0,0,0
9/5/2015 5:00,164.3222912,444.0719087,94.03192424,42.17813444,0,0,0,0
9/5/2015 6:00,187.9804291,469.7319231,103.3093707,41.81701269,0,0,0,0
9/5/2015 7:00,199.7382242,501.3158054,105.3839828,29.81763778,0,0,0,0
9/5/2015 8:00,162.4241726,522.9995633,107.8883951,42.50046059,0,0,0,0
9/5/2015 9:00,191.6502934,395.5425899,102.5189258,47.55359226,0,0,0,0
9/5/2015 10:00,148.981113,522.7876412,101.9749707,38.73399085,0,0,0,0
9/5/2015 11:00,153.4218983,405.1535323,105.6988392,43.58427911,0,0,0,0
9/5/2015 12:00,149.650347,406.525119,119.0079885,36.23633147,0,0,0,0
9/5/2015 13:00,141.7412906,449.5016305,101.5546157,53.49243913,0,0,0,0
9/5/2015 14:00,185.568318,477.2000714,101.1575481,55.41310843,0,0,0,0
9/5/2015 15:00,168.786005,477.8937237,93.30872544,47.41411721,0,0,0,0
9/5/2015 16:00,172.5278747,459.4789822,100.0942612,40.3340716,0,0,0,0
9/5/2015 17:00,142.8317931,420.0439901,104.7365395,53.21670331,0,0,0,0
9/5/2015 18:00,187.5156512,384.0742448,104.099753,50.71487747,0,0,0,0
9/5/2015 19:00,171.2656887,555.8978257,103.2066748,57.30635956,0,0,0,0
9/5/2015 20:00,185.1025317,503.3503521,104.2268916,43.95238469,0,0,0,0
9/5/2015 21:00,212.5091827,480.1211844,105.1728496,43.54665024,0,0,0,0
9/5/2015 22:00,186.992598,525.2588505,104.9265054,42.79089235,0,0,0,0
9/5/2015 23:00,158.5587227,526.8386371,88.68736173,48.2887837,0,0,0,0
9/6/2015 0:00,196.6680948,528.6412109,80.1318489,48.10285425,0,0,0,0
9/6/2015 1:00,159.9978483,484.9876653,81.01581991,54.03560195,0,0,0,1
9/6/2015 2:00,159.3274572,505.8785694,77.89227724,48.81269589,0,0,0,1
9/6/2015 3:00,168.1479731,543.5720068,93.98525063,47.55676448,0,0,0,1
9/6/2015 4:00,162.1869981,417.2577247,96.58705591,55.13599108,0,0,0,1
9/6/2015 5:00,152.960633,479.6033002,101.430105,59.69381364,0,0,0,1
9/6/2015 6:00,195.2176253,453.5200914,110.2692252,53.26527782,0,0,0,1
9/6/2015 7:00,212.5809202,538.4875004,87.57371625,39.54767121,0,0,0,1
9/6/2015 8:00,193.9871444,559.695162,94.14226426,42.22331677,0,0,0,1
9/6/2015 9:00,197.2535582,559.010794,108.0235039,48.24231063,0,0,0,1
9/6/2015 10:00,199.5929672,493.9866524,102.0571682,43.8067604,0,0,0,1
9/6/2015 11:00,211.5394832,513.0350129,91.95522694,49.46254134,0,0,0,1
9/6/2015 12:00,208.0807364,469.4213824,111.1647728,59.48266622,0,0,0,1
9/6/2015 13:00,203.7156408,407.6041527,102.4024475,45.54728089,0,0,0,1
9/6/2015 14:00,201.9734637,459.288199,104.9096291,54.26700268,0,0,0,1
9/6/2015 15:00,184.1390035,442.8838018,111.6661734,56.89312443,0,0,0,1
9/6/2015 16:00,175.2518646,430.6950661,81.37460156,43.63108556,0,0,0,1
9/6/2015 17:00,201.1713292,482.8681923,101.3520595,50.34589053,0,0,0,1
9/6/2015 18:00,148.215989,467.4157526,89.51944305,56.63486371,1,0,0,1
9/6/2015 19:00,166.661622,429.6930044,90.91413641,52.02027607,1,0,0,1
9/6/2015 20:00,186.203633,502.993038,88.05427609,51.31857312,1,0,0,1
9/6/2015 21:00,198.386131,407.9499331,110.9368261,46.59609232,1,0,0,1
9/6/2015 22:00,186.5324638,444.8138516,86.57605526,51.07747394,1,0,0,1
9/6/2015 23:00,167.1893418,442.6637188,118.4990065,50.94649845,1,0,0,1
9/7/2015 0:00,193.8825204,374.3961813,97.65590095,45.62785951,1,0,0,1
9/7/2015 1:00,192.2327784,389.3597316,97.75123675,53.26192684,1,0,0,1
9/7/2015 2:00,196.5648385,477.9217349,96.67733603,47.83688395,1,0,0,1
9/7/2015 3:00,175.9456816,523.9431624,105.9210605,53.88998963,1,0,0,1
9/7/2015 4:00,196.227848,464.2497057,97.38068033,51.7637516,1,0,0,1
9/7/2015 5:00,214.5218766,438.7247279,104.723059,60.06113678,1,0,0,1
9/7/2015 6:00,165.3738267,414.5770222,104.5815954,48.80429308,1,0,0,1
9/7/2015 7:00,161.2915648,398.7084576,80.73943974,49.41906597,1,0,0,1
9/7/2015 8:00,176.1528261,467.560318,85.32069881,50.42157927,1,0,0,1
9/7/2015 9:00,155.7411769,418.0052181,96.87639113,51.0512152,1,0,0,1
9/7/2015 10:00,215.7022163,404.9385345,113.5547696,46.67322286,1,0,0,1
9/7/2015 11:00,193.1825125,513.9365329,109.7655946,44.30133021,1,0,0,1
9/7/2015 12:00,191.1883577,424.8530064,97.67951063,44.00139161,1,0,0,1
9/7/2015 13:00,193.5301446,398.8323349,114.7857381,40.69540024,1,0,0,1
9/7/2015 14:00,200.3702031,460.4465232,99.09359699,34.0897953,1,0,0,1
9/7/2015 15:00,178.8807642,485.2773767,97.08181801,41.32226919,1,0,0,1
9/7/2015 16:00,192.8114879,359.758328,108.295457,36.82036041,1,0,0,1
9/7/2015 17:00,213.4343905,438.0839937,107.7240621,45.41717505,1,0,0,1
9/7/2015 18:00,182.2012439,457.7132138,106.9276605,42.68517715,1,0,0,1
9/7/2015 19:00,179.2931269,360.3034118,90.19188564,37.04046486,1,0,0,1
9/7/2015 20:00,197.9277295,350.1891925,112.3538948,38.30705981,1,0,0,1
9/7/2015 21:00,210.4381207,489.5318868,81.50323644,34.19694441,1,0,0,1
9/7/2015 22:00,172.0734794,514.4606562,97.82700405,46.88048536,1,0,0,1
9/7/2015 23:00,167.6322074,475.2522504,106.1730251,40.73499713,1,0,0,1
9/8/2015 0:00,183.5182574,468.4237365,104.4115829,43.41668013,1,0,0,1
9/8/2015 1:00,192.7185802,497.7251023,100.9655896,46.83105975,1,0,0,1
9/8/2015 2:00,178.2042961,421.4693799,97.76976952,33.71400661,1,0,0,1
9/8/2015 3:00,197.8394148,483.4353459,97.93575789,36.19008416,1,0,0,1
9/8/2015 4:00,184.4228204,459.1097503,100.9506548,36.94358844,1,0,0,1
9/8/2015 5:00,180.5390819,426.0837167,97.11261524,41.98820139,1,0,0,1
9/8/2015 6:00,185.249101,487.9636073,89.3391839,50.61185508,1,0,0,1
